Marie Svoboda,3 / 17
Josef Svobodová,30 / 45
Pavel Němec,35 / 116
Alena Kučerová,73 / 100
Jana Veselý,7 / 20
Josef Němcová,60 / 100
Jiří Procházka,11 / 17
Pavel Dvořák,44 / 100
František Dvořák,71 / 100
Eva Procházková,25 / 35
Michal Němec,38 / 100
František Černý,16 / 100
Kateřina Procházka,34 / 100
