Petr Krejčí ;  40%
Michal Pokorná ;  11% + 85%
Jiří Procházková ;  8% + 61%
Věra Novák ;  29% + 9% + 22%
Petr Nováková ;  4/18
Václav Procházka ;  61%
Eva Marek ;  3% + 6%
Milan Krejčí ;  41%
Jan Krejčí ;  16/48 + 5/18
Jakub Novák ;  30% + 17%
Věra Dvořáková ;  13% + 4%
Jaroslav Veselá ;  47%
Eva Kučera ;  9% + 11% + 14%
Jaroslav Procházková ;  88%
Miroslav Procházka ;  63% + 5%
Miroslav Horák ;  16/30
