Anna Kučera; 22% + 14% + 33%
Zdeněk Veselý; 2/14
Josef Kučerová; 1/17
Anna Černá; 13/31
Zdeněk Dvořáková; 10/44
Eva Kučerová; 7/29
Martin Procházková; 7%
František Novotná; 18/36 + 35/86
František Veselá; 1/16
Lucie Horáková; 4/16
Hana Černá; 28% + 2%
Jiří Černý; 9/36
Jakub Nováková; 15% + 63%
Kateřina Svoboda; 26/44
Václav Černý; 33/48
Jan Marková; 11% + 8%
Milan Černý; 11/50 + 6/16
Jakub Svoboda; 8% + 64%
Jakub Němcová; 12/13
