Eva Svobodová ;  3/8
Jan Horák ;  2%
Jana Veselá ;  4% + 29%
Marie Krejčí ;  76%
Anna Němec ;  89%
Michal Pospíšilová ;  76%
Eva Pokorná ;  21/76 + 6/72
Jiří Dvořáková ;  56% + 11%
Josef Veselá ;  21/44
Martin Pospíšilová ;  6/30
Jaroslav Horák ;  6/9
Václav Němec ;  10/24 + 42/92
Jan Černý ;  3% + 12%
Anna Marek ;  59%
Václav Horák ;  30/74 + 25/54
Josef Pokorná ;  30/68 + 2/66
Josef Němec ;  5/35
Lenka Horáková ;  14/21
