František Veselá; 2/27
Eva Novotná; 2/28
Jakub Kučerová; 3% + 1%
Kateřina Němcová; 73%
Věra Němec; 11/56 + 4/18
Jiří Kučerová; 2/2
Eva Horák; 31% + 10%
Václav Svobodová; 16/17
Milan Němcová; 15% + 32% + 1%
Václav Svobodová; 95%
