Lenka Marek; 6/34
Jana Pospíšilová; 26/49
Věra Dvořák; 65%
Václav Procházka; 31/32
Jan Pokorná; 9/38 + 15/42
Zdeněk Kučerová; 1% + 24%
Josef Černý; 7%
Pavel Němcová; 7/92 + 12/34
Anna Němcová; 8/26 + 1/8
Jana Marek; 10/37
Jiří Němec; 69%
Josef Novotná; 5/22
