Jan Kučera ;  1% + 34%
Zdeněk Novák ;  72%
Petr Svobodová ;  96%
Jakub Dvořák ;  34/44
Jana Veselá ;  16% + 13% + 26%
Zdeněk Kučera ;  25/39
Lucie Pospíšilová ;  94%
Anna Procházka ;  6/6
Eva Novotný ;  32%
Miroslav Kučerová ;  30% + 59%
Milan Novák ;  9/44
Lucie Nováková ;  9%
