Jiří Pokorná; 91%
Jakub Svoboda; 96%
Pavel Horáková; 3/40
Pavel Němcová; 32% + 9% + 4%
Martin Svobodová; 18% + 30% + 22%
Tomáš Černá; 18% + 30% + 31%
Martin Černá; 16% + 74%
Michal Němec; 15/37
Kateřina Němcová; 9% + 12% + 12%
Václav Novotný; 6/11
Alena Veselý; 32%
Jana Černý; 3/45
Pavel Novotná; 20% + 25% + 29%
