Zdeněk Novotný; 36%
Hana Krejčí; 0% + 1%
Jakub Svobodová; 24%
Milan Procházková; 57%
Michal Procházková; 15% + 1%
Milan Dvořáková; 14% + 17% + 17%
Věra Marková; 54% + 29%
Věra Pospíšilová; 56% + 12%
Tomáš Kučerová; 25/41
Jaroslav Dvořák; 76%
Lenka Černá; 2% + 23%
Alena Svobodová; 9/32
Lucie Němcová; 89%
Alena Kučera; 23/31
Věra Dvořáková; 1/52 + 1/14
Petr Dvořák; 12% + 32%
Martin Krejčí; 34%
Jaroslav Marek; 3/4
Zdeněk Novotný; 5/16 + 3/10
