Jaroslav Kučerová ;  87%
Věra Veselý ;  43% + 6%
František Horák ;  40%
Petr Veselá ;  15% + 31%
Martin Novák ;  19/25
Tomáš Marek ;  26% + 0% + 18%
Zdeněk Horáková ;  14/28
Věra Dvořáková ;  30% + 31% + 11%
Jan Pospíšilová ;  8/60 + 9/46
Lenka Procházka ;  9/44 + 12/64
Martin Procházková ;  31%
Martin Němec ;  16/17
Jakub Procházková ;  60% + 11%
Jaroslav Svoboda ;  5% + 28% + 8%
František Dvořáková ;  5/5
Anna Novotná ;  12/21
Hana Horáková ;  4/6
