Jana Novotná; 89%
Petr Krejčí; 68%
Hana Procházková; 98%
Pavel Černý; 10/32
Jaroslav Krejčí; 12%
Jana Svoboda; 4/31
Zdeněk Svoboda; 20/37
Kateřina Veselá; 22% + 8% + 1%
Jaroslav Pokorná; 8/28 + 8/36
Tomáš Marková; 17/36
Jakub Horák; 81%
Eva Procházka; 8/31
Anna Novotný; 17%
Martin Veselý; 23/72 + 7/56
Marie Procházková; 42%
