Věra Pokorná ;  12/50 + 5/28
Marie Dvořák ;  54%
Pavel Němcová ;  11% + 26% + 22%
Miroslav Procházka ;  11%
Petr Pospíšilová ;  59% + 32%
Jaroslav Černý ;  18% + 61%
Josef Horák ;  5/7
Jaroslav Marek ;  28% + 66%
Jan Marková ;  43% + 35%
Lenka Kučera ;  48% + 28%
Kateřina Černá ;  73%
Jana Marková ;  6/28
Jan Krejčí ;  56%
Věra Procházková ;  4% + 25% + 29%
