Pavel Němec ;  5% + 23%
Tomáš Krejčí ;  67% + 1%
Zdeněk Svobodová ;  18% + 11% + 9%
Jana Dvořáková ;  23/42
Marie Černý ;  1/56 + 10/34
Zdeněk Dvořáková ;  6/8
Věra Němcová ;  3% + 27% + 24%
Pavel Svobodová ;  2/14 + 24/48
Anna Černá ;  25%
Tomáš Kučerová ;  31% + 0% + 0%
Tomáš Marková ;  79%
Lenka Nováková ;  17% + 3% + 4%
Jana Veselý ;  1% + 16% + 5%
Zdeněk Novotný ;  1% + 88%
Jan Němcová ;  12/47
Michal Pokorná ;  30% + 25% + 18%
