Martin Němec; 61%
Tomáš Černý; 16%
Jiří Svoboda; 82%
Martin Pokorná; 0% + 18% + 10%
Miroslav Novotný; 56% + 14%
Miroslav Novotná; 2/20 + 5/12
Jaroslav Horák; 14% + 18%
Hana Kučerová; 9/28
Hana Horáková; 64%
Pavel Veselá; 25/34
Marie Novotná; 16/60 + 2/4
Miroslav Novák; 7/32 + 20/80
Lucie Horák; 33/94 + 6/18
František Kučerová; 11% + 8%
