Pavel Dvořák; 2/37
Jakub Veselá; 10/22
Jaroslav Pospíšilová; 30% + 13%
Josef Dvořáková; 14/19
Lucie Svoboda; 3/7
Jana Veselý; 80%
Hana Svobodová; 17/27
Josef Horák; 95%
Eva Svobodová; 40% + 35%
František Horáková; 27% + 27% + 19%
Lenka Horák; 9% + 18%
Jana Černý; 39% + 33%
Josef Němec; 6/24 + 16/40
Pavel Veselá; 2/42 + 8/64
Kateřina Němec; 6/38
Marie Svoboda; 1% + 1%
Marie Němec; 26%
Jiří Horák; 1/2 + 25/100
Hana Kučerová; 2/18 + 36/74
