Lucie Svobodová ;  17/24
Anna Horák ;  86%
František Novák ;  12% + 81%
Jana Novák ;  4% + 19%
Kateřina Svobodová ;  1/2 + 9/90
Marie Pospíšilová ;  36/74 + 2/32
Martin Horák ;  1/2 + 17/48
František Novotný ;  96%
Lenka Svoboda ;  6/14 + 7/32
Josef Veselý ;  86%
Kateřina Marek ;  0% + 6%
Eva Horák ;  19/49
Marie Dvořák ;  35/96 + 8/22
Jana Kučerová ;  14% + 0% + 22%
Martin Pospíšilová ;  22%
Miroslav Němcová ;  75%
Petr Procházka ;  10% + 61%
