Jan Svoboda; 24/44
Milan Kučera; 45/50
Milan Černá; 19/38
Petr Marková; 6/28 + 3/6
Věra Pospíšilová; 2/3
Petr Marek; 1/14 + 1/16
Josef Svoboda; 15/84 + 16/50
Jaroslav Marek; 2/54 + 9/54
Alena Marek; 8/18 + 10/32
Zdeněk Novotná; 17/28
Jana Novotná; 1%
Kateřina Nováková; 41/94 + 25/80
Miroslav Němcová; 40%
Pavel Nováková; 1/5
Jakub Novotný; 76%
Tomáš Veselá; 44% + 42%
Petr Procházková; 19% + 2% + 19%
