Anna Novák ;  15% + 32% + 13%
Jaroslav Novotný ;  1% + 31% + 27%
Zdeněk Nováková ;  19/92 + 6/14
Marie Procházková ;  32% + 22% + 4%
Josef Procházková ;  29% + 1%
Jakub Procházka ;  28% + 5%
Zdeněk Černá ;  88%
Josef Nováková ;  7% + 67%
Miroslav Pokorná ;  63%
Lenka Procházka ;  12/20
Jiří Novotný ;  2/20 + 2/68
Tomáš Procházka ;  10/84 + 30/70
