Alena Pospíšilová; 95%
Josef Marek; 5/40
Věra Horáková; 42% + 51%
Petr Marek; 29/37
Anna Marek; 18/36
Kateřina Veselý; 84%
Eva Pokorná; 26/28
Jakub Novák; 3% + 2%
Eva Procházka; 13/25
Petr Novák; 14/15
Věra Němec; 12/14
Eva Horák; 52%
Miroslav Černý; 13/47
Lenka Kučera; 4% + 27% + 20%
Michal Veselý; 90%
Alena Kučera; 55%
Hana Němcová; 12% + 11%
