Petr Horáková; 75%
Jaroslav Novotný; 21%
Hana Pospíšilová; 22% + 30% + 32%
Tomáš Svobodová; 31/49
Věra Marková; 7/18
František Krejčí; 52%
Tomáš Dvořáková; 40%
Milan Procházka; 27%
Věra Novotný; 43%
Eva Veselý; 37% + 31%
Alena Novotný; 35%
Petr Veselý; 10% + 12%
