Petr Kučera; 23/25
Alena Černý; 95%
Pavel Pokorná; 15/35
Tomáš Procházka; 10/12
Jiří Marková; 37% + 29%
Miroslav Novotná; 4/49
Pavel Veselý; 2% + 1%
Jan Kučerová; 4/12
Marie Černý; 13/13
Martin Novotný; 5/12
Michal Marek; 15% + 2% + 24%
Lucie Novotný; 23% + 58%
Věra Horák; 77%
Petr Kučerová; 13% + 9%
Tomáš Horáková; 9/18 + 12/26
