Eva Veselá; 36%
Alena Kučera; 9/22
Zdeněk Černý; 29% + 21% + 14%
František Nováková; 88%
Václav Svoboda; 6/24 + 3/14
Václav Horáková; 11% + 8% + 2%
Eva Kučerová; 49%
Václav Veselý; 18% + 10%
Michal Dvořáková; 8/18
Jaroslav Novotná; 17% + 5%
Kateřina Pokorná; 23%
