Jana Pokorná; 13/34
Jan Kučerová; 3/96 + 41/96
Kateřina Novotný; 3% + 6%
Milan Procházková; 3/8
Pavel Krejčí; 12%
Jaroslav Dvořák; 40% + 41%
Věra Horák; 19% + 25% + 0%
Josef Novotná; 4% + 23% + 17%
František Nováková; 15% + 4% + 14%
Jana Nováková; 2/31
Michal Krejčí; 22/23
Zdeněk Pokorná; 65%
Alena Pokorná; 17/44
Lucie Marek; 8% + 1% + 21%
Martin Dvořáková; 32/64 + 3/32
