Lucie Kučerová ;  3/40
Eva Procházka ;  21%
Anna Svobodová ;  14% + 14% + 22%
Petr Marková ;  53% + 1%
Jaroslav Horák ;  17% + 9% + 19%
Václav Pokorná ;  45% + 22%
Hana Černý ;  38%
Miroslav Novotný ;  97%
Václav Veselý ;  21% + 0% + 19%
Hana Černá ;  17% + 4%
Eva Dvořáková ;  10% + 5% + 20%
