Jana Procházka ;  18/98 + 12/38
Václav Kučera ;  3/100 + 6/26
Martin Svobodová ;  11% + 16% + 22%
Martin Novotná ;  98%
Tomáš Němec ;  17%
Hana Novotná ;  82%
Josef Svoboda ;  18/84 + 3/18
Lenka Krejčí ;  21%
František Novák ;  45/90 + 23/54
Milan Novotná ;  6/84 + 1/58
Jakub Procházková ;  60%
Jaroslav Dvořák ;  80%
Jiří Krejčí ;  22/44 + 9/30
Zdeněk Horáková ;  3/6
