Miroslav Svoboda; 18/32
Josef Novotný; 78%
Miroslav Procházková; 1/1
Lenka Horák; 62%
Věra Kučera; 28% + 20% + 25%
Alena Kučerová; 39% + 2%
Jana Marek; 7/43
Miroslav Černý; 56%
Kateřina Svobodová; 3/52 + 29/58
Eva Kučera; 54%
Václav Veselá; 2/6
František Krejčí; 18/32
Petr Novotná; 37% + 29%
Marie Novotný; 2/22
