Lenka Dvořáková; 4/56 + 33/68
Lenka Kučerová; 17/23
Lucie Horák; 2/3
Pavel Černý; 47%
Marie Krejčí; 15% + 28% + 16%
Zdeněk Veselý; 8%
Hana Svoboda; 4/27
Lucie Novotný; 24% + 32% + 7%
Jaroslav Procházková; 27/37
Jiří Kučerová; 30% + 4%
Lucie Veselá; 8/19
Jaroslav Dvořáková; 8% + 14% + 5%
Miroslav Němec; 14% + 3% + 0%
Lucie Kučera; 21% + 13% + 9%
Jana Pospíšilová; 0%
Lenka Svobodová; 9% + 28%
Zdeněk Procházka; 32%
