Anna Dvořák ;  23/43
Jaroslav Procházka ;  8% + 17% + 28%
Zdeněk Horáková ;  4% + 20%
Pavel Novák ;  81%
Jakub Marek ;  26%
Jaroslav Novotný ;  3/6
Věra Dvořáková ;  7% + 1% + 29%
František Krejčí ;  18/20
Jakub Černý ;  9/14
František Kučerová ;  15% + 7% + 17%
Jiří Dvořáková ;  23% + 28%
Michal Svoboda ;  81%
Josef Veselý ;  32/37
Miroslav Svobodová ;  26%
Josef Dvořáková ;  6% + 11% + 14%
Jiří Černá ;  3/48 + 19/78
Milan Pospíšilová ;  16/22
