Eva Svobodová; 65% + 17%
Miroslav Dvořáková; 10/43
Jaroslav Kučerová; 30% + 14% + 27%
Pavel Nováková; 29% + 2%
Josef Černý; 2% + 2%
Milan Pokorná; 55%
Petr Kučera; 1/1
Miroslav Veselý; 1/35
Jan Novák; 78%
Petr Procházková; 37/74 + 3/98
Michal Pokorná; 83% + 11%
Jan Novotná; 10/15
