Lucie Pospíšilová; 9% + 15% + 20%
Jan Němec; 5/14 + 13/30
Jana Novotná; 41/82 + 9/84
František Marková; 8/9
Lenka Kučera; 58%
Lenka Horák; 3/3
Jakub Veselý; 15/56 + 14/58
Jan Horák; 10% + 23% + 4%
Pavel Procházka; 35% + 48%
Kateřina Procházka; 0% + 3%
Jan Černá; 22/46
Anna Kučera; 15% + 1%
Milan Veselý; 31% + 45%
Zdeněk Marková; 51%
