Jana Horák; 5/22
Martin Marek; 55%
Petr Marková; 74%
Josef Svobodová; 10/24
Jaroslav Němcová; 1/25
Alena Novotný; 64%
Jana Černá; 2/4
Alena Veselý; 19%
Pavel Pokorná; 7/32 + 1/4
Tomáš Kučera; 43%
Miroslav Dvořák; 18/58 + 20/64
Marie Černá; 2% + 31%
Petr Procházka; 66% + 12%
Václav Marek; 1/1
Jana Novotný; 38%
Jiří Černá; 14/28
Miroslav Dvořáková; 11%
Lenka Horák; 91%
