Eva Horák ;  0% + 1%
Josef Černý ;  20% + 10%
František Němcová ;  7/9
Jakub Dvořáková ;  2/32 + 11/60
Věra Černá ;  0% + 50%
Kateřina Němec ;  15/24
Eva Němcová ;  75%
Lucie Kučerová ;  26/40
Martin Černý ;  5% + 91%
Marie Dvořák ;  92%
Václav Němcová ;  19% + 2% + 16%
Lenka Marková ;  4% + 79%
Michal Marková ;  22% + 28% + 9%
Alena Novotný ;  80%
Jaroslav Pokorná ;  19% + 13% + 29%
Věra Svobodová ;  84%
Miroslav Procházka ;  6/6
