Milan Kučerová; 10/18
Pavel Pospíšilová; 44% + 16%
Miroslav Procházková; 3% + 7% + 8%
Jan Němcová; 81%
Lenka Černá; 30%
Eva Procházková; 1/20
Marie Krejčí; 6/10
Josef Dvořák; 51%
Jan Kučerová; 29% + 16% + 27%
Kateřina Němec; 45/100 + 4/26
Václav Svoboda; 40%
Miroslav Horáková; 27% + 32% + 31%
Josef Němec; 48/100 + 3/6
