Hana Němcová ;  10/13
Petr Kučerová ;  5/34
Hana Marek ;  45%
Eva Marek ;  37%
Kateřina Marková ;  34% + 42%
Jiří Pospíšilová ;  4% + 3% + 23%
Hana Svobodová ;  24/66 + 19/56
Hana Krejčí ;  21%
Eva Nováková ;  2/18 + 16/42
Jaroslav Krejčí ;  1% + 4% + 18%
Milan Nováková ;  98%
Martin Černý ;  38% + 13%
Jiří Novotný ;  72%
Alena Dvořáková ;  2%
Jaroslav Marková ;  1/21
Jiří Svobodová ;  31% + 3% + 7%
