Alena Marková ;  4/22 + 21/92
Marie Marková ;  16/21
Jaroslav Kučerová ;  73%
Michal Novák ;  81%
Marie Dvořáková ;  11/60 + 23/68
Tomáš Pokorná ;  6/12
Kateřina Horáková ;  9% + 61%
Václav Novotná ;  18/78 + 16/64
Pavel Novák ;  40%
Zdeněk Marek ;  16/50
Alena Marek ;  19% + 75%
Miroslav Marková ;  1/92 + 25/54
Petr Kučera ;  13/64 + 44/88
Miroslav Procházková ;  20%
