Václav Krejčí ;  3% + 5%
Kateřina Němec ;  17% + 2% + 31%
Milan Pokorná ;  1% + 1%
Lenka Marková ;  30% + 7% + 18%
Alena Nováková ;  28%
František Novotná ;  31/40
Miroslav Kučerová ;  14/14
Kateřina Pokorná ;  4/80 + 9/28
Jiří Novotná ;  27% + 19%
Hana Dvořáková ;  47/47
Jan Novotný ;  22% + 44%
Václav Pospíšilová ;  19/36
Josef Novák ;  72%
Marie Krejčí ;  20/88 + 5/66
Věra Horáková ;  5% + 21% + 5%
Josef Dvořák ;  0%
Anna Novák ;  39%
