Josef Němcová ;  1/20 + 8/18
Jana Procházka ;  11/22 + 11/30
Lucie Veselá ;  32/74 + 36/76
Marie Němcová ;  42%
Tomáš Veselá ;  75%
Marie Pospíšilová ;  16%
Jan Novák ;  2/2
Alena Marek ;  3/40
Lucie Kučerová ;  18/62 + 7/14
Tomáš Novotný ;  34%
Eva Svoboda ;  36/50
Věra Krejčí ;  16%
František Procházková ;  84%
Lucie Horáková ;  70%
Martin Marek ;  29/58 + 11/30
Jaroslav Veselý ;  68% + 17%
Josef Marková ;  50%
Alena Černá ;  24% + 6% + 12%
