Anna Horák ;  18/26
Josef Pospíšilová ;  4/5
Věra Němec ;  27/48
Václav Černá ;  0% + 1%
Zdeněk Procházková ;  41/41
Václav Procházka ;  62%
Kateřina Novotný ;  22% + 24% + 0%
František Horák ;  11% + 2%
Lucie Krejčí ;  4% + 8%
Anna Novotný ;  93%
Lenka Novotný ;  52%
Jiří Novotná ;  25/34
Jan Černý ;  5/5
Michal Krejčí ;  36/50
Miroslav Horáková ;  13% + 8%
František Svobodová ;  11/23
Jan Pospíšilová ;  1/4
Michal Novotný ;  70%
Jaroslav Kučera ;  19%
