Kateřina Kučerová; 4/44 + 9/32
Tomáš Svoboda; 20% + 14% + 11%
Václav Novák; 16/27
Tomáš Pokorná; 34%
Josef Veselá; 13% + 2% + 10%
Michal Novotná; 4/4
Zdeněk Černá; 18% + 3%
Jakub Novotný; 14% + 53%
Jan Černý; 14% + 30% + 14%
Věra Svobodová; 62%
Jiří Procházková; 27/41
