Pavel Dvořák; 2% + 35%
Alena Němcová; 28%
Michal Svobodová; 3/12
Pavel Dvořáková; 91%
Michal Marková; 10% + 36%
Lucie Novák; 32/40
Věra Dvořáková; 18%
Michal Němec; 3/38
Lenka Němec; 3/4
Jan Procházka; 29/76 + 28/66
Kateřina Svobodová; 16/35
Lenka Kučerová; 1%
Anna Marek; 17% + 14% + 7%
Michal Novák; 2/46
Anna Svoboda; 7/10
Tomáš Veselý; 29%
Jiří Dvořáková; 8/40 + 29/62
