Lenka Svoboda; 5%
Michal Dvořák; 4/21
Lucie Veselá; 13/54 + 5/26
Zdeněk Horák; 64%
Věra Nováková; 38%
Jiří Kučerová; 2/49
Michal Novotný; 40%
Věra Černý; 25% + 19% + 12%
Tomáš Černý; 1/2 + 1/18
Milan Němec; 27% + 17% + 9%
Pavel Černý; 64%
Jakub Černý; 2/11
Lenka Němec; 3% + 10% + 2%
Michal Marek; 31% + 4%
Josef Marek; 1%
František Svoboda; 23%
