Kateřina Němcová; 18/24
Václav Procházka; 1/96 + 5/16
Jiří Marková; 27% + 30% + 0%
Alena Černý; 5/16 + 2/14
Jiří Kučera; 69%
Alena Kučera; 16/33
Jiří Kučera; 23% + 25% + 17%
Jan Marková; 47%
Petr Němec; 13/23
Lenka Horáková; 38%
Hana Marková; 21/22
Marie Svoboda; 63%
Václav Dvořák; 12/41
Martin Novotná; 14/42 + 20/42
Alena Kučerová; 13% + 12% + 13%
