Miroslav Pospíšilová; 34/50
Jaroslav Novotný; 29/40
Milan Veselá; 31% + 25%
Marie Novotný; 5/18
Hana Dvořák; 30%
Josef Marková; 70%
Tomáš Kučerová; 24% + 23% + 1%
Petr Pospíšilová; 32%
Marie Veselý; 4% + 94%
Eva Novotný; 20% + 14% + 26%
Martin Kučera; 2/50
Zdeněk Veselá; 8/14
Josef Marek; 12% + 23% + 16%
Pavel Horák; 8% + 20% + 15%
Martin Svoboda; 10%
