Miroslav Veselá; 3% + 25% + 32%
Kateřina Krejčí; 81%
Michal Dvořák; 97%
Michal Marková; 11/32 + 2/8
Alena Marek; 8% + 21% + 21%
Lucie Novák; 9/22 + 15/98
Milan Kučera; 24%
Václav Němcová; 22/92 + 6/94
Marie Nováková; 21% + 6%
František Horáková; 19/58 + 4/40
Alena Černý; 8/20 + 30/60
Jan Pospíšilová; 7/28
Jakub Horáková; 7/52 + 4/16
Josef Marek; 10%
