Zdeněk Horáková; 16/22
Václav Marek; 7% + 21% + 26%
Jan Černá; 94%
Marie Kučera; 34% + 10%
Martin Dvořák; 5/9
Lenka Svobodová; 13%
Tomáš Černá; 3/25
Lucie Marková; 21% + 19% + 13%
Věra Kučerová; 38/48
Miroslav Němcová; 7/70 + 8/70
Věra Veselý; 97%
Jaroslav Pospíšilová; 8/16 + 1/36
Martin Němcová; 65%
Petr Černá; 19/19
Josef Kučera; 1/3
Pavel Novák; 30% + 39%
Marie Němec; 52%
