Martin Němec ;  36% + 37%
Hana Horáková ;  91%
Jana Marková ;  57%
Tomáš Svobodová ;  17% + 31% + 5%
Martin Němcová ;  8% + 1% + 28%
Milan Marková ;  1/1
Jakub Krejčí ;  25% + 24%
Zdeněk Veselá ;  2/9
Jana Novotný ;  6/10
Václav Marková ;  4/15
Zdeněk Novák ;  64%
Jaroslav Nováková ;  30% + 22% + 22%
