Zdeněk Veselý ;  20% + 1% + 15%
Anna Novák ;  2/8 + 10/34
Michal Procházková ;  7/9
Jiří Nováková ;  39%
Jana Němec ;  25% + 18% + 15%
Lenka Novák ;  23/34
Jana Novotný ;  76%
Jakub Nováková ;  7% + 28% + 25%
Lenka Dvořáková ;  26% + 24% + 8%
Lucie Dvořák ;  82%
Lenka Horáková ;  58%
Petr Procházková ;  38%
Marie Kučerová ;  12/58 + 26/68
