Martin Nováková ;  16% + 12% + 31%
Tomáš Němec ;  26/78 + 24/72
Hana Veselý ;  8% + 13%
Zdeněk Marek ;  39/86 + 40/86
Jaroslav Dvořák ;  4% + 30%
Pavel Novák ;  14% + 9% + 5%
Miroslav Černý ;  11/22
Lucie Horáková ;  20% + 21%
Anna Pospíšilová ;  91%
Martin Pokorná ;  80%
Václav Horáková ;  23/29
Jakub Němcová ;  24%
Věra Černý ;  15/39
Miroslav Krejčí ;  10%
Jan Svobodová ;  31% + 18% + 1%
