František Dvořáková ;  35% + 20%
Petr Dvořák ;  73%
Pavel Procházka ;  1/25
Jiří Procházka ;  3/23
Miroslav Marek ;  67%
František Novotný ;  17/62 + 12/24
Lucie Horák ;  3% + 3% + 21%
Václav Svobodová ;  12%
Milan Veselý ;  4%
Martin Dvořák ;  41%
Kateřina Černý ;  6/38
