František Svoboda; 8% + 2% + 4%
Marie Kučerová; 10/27
Miroslav Kučera; 57%
Věra Dvořáková; 27/76 + 24/88
Václav Marková; 99%
Petr Krejčí; 29% + 21% + 31%
František Novák; 3%
Lucie Dvořák; 22/37
Miroslav Procházková; 20/54 + 20/46
Petr Novotný; 43% + 8%
Michal Horáková; 6/60 + 17/50
Alena Pospíšilová; 2/3
Věra Marek; 14% + 2%
Tomáš Horák; 29% + 27%
Martin Pokorná; 54% + 20%
Jan Horáková; 0% + 2%
