Václav Nováková; 11%
Eva Černý; 29%
Milan Kučerová; 8% + 56%
Martin Marek; 71%
Michal Kučera; 2% + 16%
Milan Němec; 4/18 + 6/40
Lenka Procházka; 21/42 + 23/68
Michal Nováková; 1/2
Jaroslav Kučera; 16% + 17% + 9%
Václav Novotný; 5/58 + 8/72
Lucie Dvořák; 22% + 6% + 3%
Jan Marek; 6/6
Lenka Nováková; 55%
