Jiří Novotný; 29/50
Lenka Novotný; 14/17
Tomáš Procházková; 8% + 2%
Miroslav Nováková; 26% + 69%
Josef Horák; 12% + 37%
Miroslav Dvořák; 60%
Martin Novotný; 14/41
Zdeněk Svoboda; 2/6
Václav Krejčí; 11/72 + 22/66
František Procházka; 97%
Pavel Svobodová; 21/82 + 5/10
Zdeněk Dvořák; 28%
Václav Němcová; 5% + 10%
