Anna Nováková; 27/42
Jiří Horáková; 2/35
Josef Veselá; 5/14 + 20/92
Zdeněk Dvořák; 9/56 + 16/66
Lucie Marková; 9% + 19% + 16%
Jakub Svobodová; 6/36 + 27/72
Lenka Novotný; 13/82 + 10/22
Václav Procházková; 1%
Pavel Pospíšilová; 12% + 85%
Jakub Nováková; 27% + 28%
