Petr Němcová ;  16% + 1%
Jakub Novotná ;  4%
Marie Nováková ;  29/45
Jakub Kučera ;  33%
Jiří Pospíšilová ;  26/64 + 15/50
Kateřina Černá ;  19/27
Lucie Pospíšilová ;  6/29
Josef Novotná ;  96%
Václav Procházka ;  20% + 30% + 0%
Eva Procházka ;  94%
