Hana Černá ;  9%
Michal Novák ;  7%
Kateřina Veselá ;  33/92 + 3/72
Kateřina Černá ;  2/11
Anna Procházka ;  31% + 27% + 25%
Lenka Dvořáková ;  16/45
Pavel Dvořák ;  2/2
Lucie Horáková ;  74%
Jakub Němec ;  1/12 + 20/50
Jana Kučera ;  2/29
Lenka Černá ;  17% + 1% + 10%
Alena Horák ;  1% + 1%
Michal Krejčí ;  6/56 + 10/30
František Novotný ;  10% + 18%
Hana Novotný ;  62% + 7%
