Lenka Horák; 33/46
Zdeněk Černá; 91%
Josef Dvořák; 26%
Lucie Krejčí; 49%
Lucie Černá; 77%
Josef Novák; 6% + 11%
František Novák; 19% + 2%
Jakub Černá; 6% + 24%
Hana Horák; 23/24
Věra Veselá; 73%
Jaroslav Marek; 22/37
Tomáš Krejčí; 71%
Michal Dvořáková; 3% + 1%
Miroslav Krejčí; 22/46
Hana Dvořáková; 4/5
