Martin Horáková ;  64%
Lucie Svoboda ;  53%
Petr Veselý ;  22/100 + 2/16
Martin Němec ;  90%
Jakub Nováková ;  10% + 6% + 6%
Anna Nováková ;  8/46
František Svobodová ;  8/74 + 21/72
Josef Novotný ;  31% + 19% + 14%
Lenka Černá ;  8% + 18%
Josef Horák ;  78%
Michal Procházka ;  85%
Anna Dvořáková ;  52%
Jiří Horák ;  41/47
Věra Krejčí ;  6/14 + 2/22
Jakub Pokorná ;  9/20
Eva Dvořáková ;  7/32 + 15/30
Martin Procházková ;  76%
Anna Marková ;  16% + 18% + 8%
