Tomáš Černý ;  1% + 20%
Anna Nováková ;  41%
Milan Krejčí ;  16/41
Lenka Horáková ;  34/35
Hana Nováková ;  75%
Lucie Pokorná ;  13/42
František Pospíšilová ;  3/8
Anna Veselý ;  77%
Jakub Marek ;  24/56 + 9/56
Václav Němcová ;  84%
