Jana Svobodová ;  10/13
Pavel Marková ;  7% + 23%
Jaroslav Novotný ;  17%
Eva Němec ;  21% + 30% + 21%
Hana Pospíšilová ;  27/34
Jan Svoboda ;  56%
Marie Němec ;  32% + 2%
Pavel Pospíšilová ;  17%
Jakub Pospíšilová ;  22%
Kateřina Krejčí ;  7/22 + 3/6
Miroslav Veselý ;  3/5
Tomáš Pokorná ;  44%
