Lenka Svobodová; 0% + 2%
Josef Dvořáková; 60% + 27%
Hana Svoboda; 28/34
Tomáš Krejčí; 50%
Josef Horáková; 10% + 0% + 15%
Lucie Veselá; 7/30 + 1/30
Kateřina Veselá; 6/80 + 1/50
Marie Marková; 25/35
Milan Svobodová; 5/10
Václav Němec; 13% + 22% + 5%
Milan Nováková; 31% + 5% + 8%
Alena Kučerová; 58% + 12%
Josef Kučerová; 8/42
František Marková; 53%
