Josef Němec; 2/2
Miroslav Černá; 8% + 5% + 24%
Kateřina Novotný; 20% + 11% + 5%
Václav Marek; 50%
Jakub Černá; 9% + 4%
Jaroslav Procházková; 8% + 43%
Milan Veselá; 3/24
Tomáš Dvořák; 19% + 2% + 0%
Jakub Svobodová; 22/48
Lucie Černý; 13/42
Martin Marek; 28% + 2% + 2%
Věra Marek; 5/13
Tomáš Kučerová; 59%
Josef Marek; 12%
Jiří Novotný; 45%
Miroslav Horáková; 4/18 + 10/54
