Hana Novák; 24/28
Eva Novotná; 33%
Miroslav Novotný; 55%
Hana Procházková; 2/4
Michal Černý; 8/20 + 8/18
Alena Marková; 50%
Lucie Pokorná; 22/48 + 9/34
Jaroslav Marek; 30% + 10% + 28%
Lenka Novotný; 36%
Alena Němec; 3/26
Marie Horák; 6/28
Petr Marková; 33/86 + 12/62
František Pospíšilová; 5%
