Kateřina Pospíšilová ;  22% + 28% + 16%
Marie Veselá ;  17/35
Lucie Němcová ;  0% + 30% + 26%
Kateřina Černý ;  64%
Jana Pospíšilová ;  32% + 21% + 16%
Martin Veselá ;  16/25
Eva Svobodová ;  27%
Lucie Novotný ;  10/60 + 3/16
Miroslav Procházka ;  6% + 6% + 9%
Věra Veselý ;  35%
Milan Procházková ;  29% + 2% + 7%
Lucie Dvořák ;  1/11
