František Černý; 9/13
Eva Kučera; 39%
Jana Marek; 13/19
Petr Pospíšilová; 5/26
Josef Dvořáková; 3/11
Eva Horák; 11/45
Lucie Marková; 9/21
Lucie Svobodová; 37/88 + 26/86
Miroslav Marek; 25% + 8% + 2%
Václav Dvořáková; 10% + 10% + 12%
Jiří Novotná; 33% + 2% + 33%
Zdeněk Kučerová; 29% + 16% + 29%
Jan Horák; 50%
Martin Dvořák; 15/24
Tomáš Černý; 42% + 39%
Zdeněk Nováková; 16/16
Jaroslav Němcová; 3/15
