Martin Svobodová; 9% + 38%
Anna Černá; 13/36 + 3/12
Michal Pokorná; 52%
Jaroslav Marková; 1/2 + 7/24
Lenka Krejčí; 14/62 + 26/52
Martin Horáková; 32% + 8%
Zdeněk Veselá; 6/37
Kateřina Horáková; 40%
Pavel Veselá; 1/1
Eva Procházková; 27% + 31% + 20%
Jana Nováková; 2/74 + 3/36
Jana Kučera; 33%
