Lucie Marek; 12% + 25% + 22%
Milan Procházková; 14% + 3% + 21%
Václav Němcová; 79% + 13%
Jiří Svoboda; 26%
Václav Svoboda; 32/40
Jiří Němcová; 28% + 24% + 20%
Hana Marek; 6/24 + 16/96
Kateřina Krejčí; 51%
Kateřina Novotný; 49% + 49%
Jaroslav Dvořák; 14% + 78%
Anna Pokorná; 6/45
Martin Nováková; 33% + 20% + 20%
Jaroslav Černá; 13%
Lenka Svobodová; 20/26
