Tomáš Procházková ;  19/42 + 9/50
Josef Krejčí ;  21%
Kateřina Horák ;  21% + 12% + 20%
Hana Novotný ;  26% + 20% + 25%
Hana Novotná ;  1/1
Alena Marek ;  2/44
Anna Novák ;  20%
Milan Veselá ;  7% + 4% + 19%
Zdeněk Dvořák ;  23/28
Eva Marková ;  17%
Hana Marek ;  7/82 + 36/88
Hana Marková ;  71%
Václav Svobodová ;  25%
Tomáš Kučerová ;  11/40
Jan Kučerová ;  20/23
Marie Černý ;  13% + 33% + 14%
Pavel Marková ;  21% + 4% + 15%
