Pavel Novotná; 80%
Věra Dvořák; 24% + 31% + 33%
Jan Pokorná; 2% + 15%
Jiří Dvořáková; 24%
Martin Marek; 30% + 3% + 21%
Pavel Černý; 7%
Zdeněk Horák; 5% + 19%
Jana Horák; 1/17
Milan Němcová; 13/36 + 46/96
Pavel Veselá; 4/14 + 1/16
Jan Marková; 10%
