Lenka Svoboda; 3/7
Jana Němcová; 87% + 6%
Hana Kučerová; 10/46 + 43/98
Alena Pospíšilová; 60%
Petr Svoboda; 5/28
Alena Němec; 0% + 32% + 24%
Martin Kučera; 33%
Jana Černá; 43%
Václav Němcová; 10/34
Marie Novotná; 3/24
Lenka Horák; 2/4
Lenka Pospíšilová; 23/30
Alena Veselý; 2/3
Jiří Novotný; 4%
Jan Černá; 35%
