Josef Veselá; 21%
Jaroslav Pospíšilová; 1/33
Michal Černá; 18% + 27% + 25%
Miroslav Procházka; 2/2
Jaroslav Veselá; 5/84 + 29/62
Martin Dvořák; 7/9
Marie Svoboda; 1/1
Martin Horáková; 19% + 28%
Pavel Horáková; 38% + 22%
Jana Černý; 18%
František Černá; 64%
Milan Dvořáková; 10% + 6%
Lucie Nováková; 92%
Lenka Horák; 26/64 + 1/22
Milan Dvořák; 98%
Jaroslav Černý; 8% + 17%
Marie Němcová; 17% + 15% + 16%
Pavel Němec; 94%
