Jan Veselá; 2% + 22%
Jiří Novotný; 32% + 5% + 6%
Eva Svobodová; 1/2
Martin Krejčí; 29/41
Lucie Horák; 26%
Jakub Svoboda; 5/60 + 3/22
Lucie Svoboda; 14/34
Hana Svoboda; 28% + 2% + 32%
Jakub Svoboda; 2/20
Zdeněk Svoboda; 6/34 + 4/22
Hana Krejčí; 14% + 12%
Lucie Svoboda; 1/2 + 10/24
Milan Svobodová; 51% + 47%
Michal Pokorná; 25/30
Lucie Horák; 11% + 4%
Miroslav Marek; 90%
Kateřina Černá; 13/37
