Tomáš Svobodová; 4%
Alena Procházková; 10/18
Věra Procházková; 50%
Hana Černý; 8% + 14%
Marie Svobodová; 7/9
Petr Kučera; 29% + 43%
Petr Pospíšilová; 22% + 1% + 1%
Josef Kučera; 6/31
Alena Veselý; 6/7
Michal Svoboda; 4/4
