Martin Novák; 8/90 + 2/10
Lucie Černý; 12/22
Jana Němec; 19%
Tomáš Horák; 17%
Pavel Černá; 31/72 + 8/58
Zdeněk Němcová; 24%
Milan Novotný; 46%
Anna Horák; 45%
Miroslav Dvořáková; 7/42
Petr Černý; 16%
Tomáš Procházková; 10%
