Miroslav Novák; 36/36
Eva Svobodová; 49%
Pavel Nováková; 37/90 + 25/88
Zdeněk Černý; 2/29
Marie Marek; 6% + 16%
Věra Svoboda; 1/3
Jakub Kučerová; 27% + 24% + 29%
František Svobodová; 19/21
Lenka Němcová; 8% + 2%
Eva Pokorná; 51% + 10%
Miroslav Novotná; 99%
Lenka Černý; 2/13
Eva Svobodová; 92%
