Alena Marková ;  9% + 10% + 16%
Lucie Procházková ;  27%
Tomáš Svoboda ;  73%
Petr Dvořák ;  8/47
Kateřina Pokorná ;  3%
Hana Horáková ;  42% + 43%
Václav Černá ;  13% + 30% + 13%
Kateřina Novotný ;  9/45
Marie Procházka ;  12/12
Alena Novák ;  36/46
Kateřina Krejčí ;  22/27
Milan Horáková ;  6/28
