Petr Svoboda ;  62%
Alena Novák ;  35/44
Martin Němec ;  90%
Anna Horák ;  32%
Jakub Veselý ;  18%
Marie Marková ;  31%
Jaroslav Němec ;  13/30 + 9/64
Pavel Veselá ;  19% + 10% + 22%
Josef Novák ;  54%
Alena Svobodová ;  8%
Martin Dvořáková ;  16/20
Anna Marková ;  26/43
