Michal Němcová ;  92%
Věra Marek ;  36/36
Jiří Svoboda ;  62%
Petr Novotný ;  2/3
Pavel Veselý ;  16/66 + 5/10
Jiří Dvořák ;  15% + 29%
Marie Procházková ;  42%
Jan Veselá ;  68%
František Kučerová ;  38%
Martin Němcová ;  13% + 54%
