Kateřina Dvořáková; 15% + 25%
Lucie Procházková; 16/36
Jakub Marková; 4/13
Martin Krejčí; 39% + 48%
Milan Černá; 68%
Miroslav Nováková; 1% + 32% + 4%
Eva Novák; 13/19
Zdeněk Horáková; 30% + 17%
Alena Kučerová; 13/35
Jakub Novotný; 20%
Michal Novotná; 86%
Zdeněk Novotná; 8/74 + 30/98
Pavel Marek; 86% + 1%
Lenka Kučerová; 4/9
Václav Novotná; 0% + 50%
