Jana Svobodová; 98%
Jan Horáková; 21/26
Petr Pokorná; 26%
Kateřina Marek; 45/46
Petr Horáková; 36%
Jan Dvořáková; 0% + 5%
Jana Pospíšilová; 33%
Jiří Němcová; 17/50 + 13/70
Pavel Marek; 87%
Jan Veselý; 3/6 + 7/16
Eva Veselý; 91%
Kateřina Němec; 17/25
Zdeněk Procházková; 4/4
