Jaroslav Černá; 17/37
Lenka Dvořáková; 48%
Petr Veselá; 39/40
Marie Krejčí; 17/21
Marie Černá; 11%
Josef Svobodová; 17/80 + 21/52
Hana Horáková; 3%
Alena Kučera; 32%
Milan Procházka; 48/49
Václav Svoboda; 15% + 14% + 12%
Lenka Novotný; 16/96 + 5/62
Lenka Nováková; 53%
Václav Procházková; 5% + 11% + 0%
