Lenka Veselá ;  8%
Zdeněk Horák ;  85%
Anna Nováková ;  30/34
Marie Novotný ;  9% + 20% + 11%
Jana Krejčí ;  4% + 28%
Eva Veselá ;  25/58 + 1/10
Michal Svoboda ;  16%
Josef Kučera ;  44% + 28%
Pavel Procházková ;  80%
Marie Němec ;  42%
Pavel Novák ;  13% + 8% + 21%
Jaroslav Novotný ;  7/16
Pavel Svoboda ;  36%
Jan Černá ;  81% + 17%
František Novotný ;  19/20
