Petr Černá ;  41% + 40%
Lucie Veselá ;  4/14
Zdeněk Novotná ;  29% + 12% + 27%
Petr Veselá ;  72%
Jakub Dvořáková ;  13/27
Věra Procházka ;  1/8
Jan Svobodová ;  1/9
Martin Novotná ;  29/68 + 30/92
Josef Horáková ;  76%
Pavel Procházková ;  5% + 28% + 29%
