Pavel Marková; 32/34
Jaroslav Němec; 8/52 + 9/18
František Pospíšilová; 2/6
Milan Novotná; 36% + 52%
Jiří Veselá; 61%
Alena Novotný; 30% + 30%
Milan Novotný; 25% + 31% + 4%
Lenka Pokorná; 48%
Josef Dvořák; 82%
Jakub Nováková; 59%
Zdeněk Kučerová; 0%
Alena Veselý; 23%
Petr Horák; 5/14
