Jana Dvořáková ;  38%
Pavel Svobodová ;  14%
Eva Horák ;  1% + 32%
Lenka Veselá ;  34% + 15%
Hana Němec ;  9% + 7% + 18%
Hana Procházková ;  42%
Petr Novák ;  89%
Marie Veselý ;  50%
Michal Procházka ;  15% + 6% + 13%
Jan Svobodová ;  12/16
Jana Pokorná ;  32%
Jakub Procházka ;  11/22 + 9/28
Miroslav Černá ;  82%
František Novák ;  60%
Marie Kučera ;  3%
Miroslav Dvořáková ;  2/9
Martin Krejčí ;  35% + 3%
Milan Němec ;  9/17
Petr Marek ;  0%
