František Krejčí; 6/6
Josef Svobodová; 17% + 31% + 29%
Pavel Dvořák; 24% + 14% + 9%
Anna Veselý; 46%
Milan Veselá; 13% + 27% + 17%
Jaroslav Dvořáková; 5/38
František Marková; 83%
Marie Marková; 32% + 16% + 12%
Pavel Černá; 28%
František Novotný; 1/60 + 2/8
Petr Němcová; 2/13
Věra Novotný; 5/16
Kateřina Procházka; 6/38 + 15/40
