Lucie Kučera; 29% + 6% + 21%
Martin Kučera; 1/34
Václav Horák; 10% + 72%
Lucie Veselá; 1/7
Miroslav Němec; 9/20 + 16/38
Tomáš Pospíšilová; 37%
Jiří Němec; 3/20 + 10/26
Lucie Svobodová; 17/70 + 1/8
Václav Veselá; 3/5
Marie Svoboda; 51%
Hana Černá; 9/24
Petr Němec; 7/24
Hana Krejčí; 7/13
Jan Horáková; 1/34
Anna Němec; 3% + 46%
Martin Novák; 12/37
