Zdeněk Veselá ;  24%
Hana Horák ;  58%
Zdeněk Kučera ;  17% + 53%
Milan Marek ;  6% + 24% + 6%
Kateřina Horák ;  14/42 + 27/82
Josef Horáková ;  14% + 19%
Jana Krejčí ;  2/46
Jana Horáková ;  14/39
Zdeněk Dvořáková ;  20%
Milan Němcová ;  27/48
Zdeněk Krejčí ;  8/9
