Josef Nováková ;  82%
Milan Černá ;  26%
Pavel Dvořáková ;  24%
Jan Svobodová ;  11% + 21% + 28%
Eva Kučerová ;  13% + 1%
Milan Nováková ;  9/36
Miroslav Nováková ;  7/29
Lucie Marek ;  9%
Václav Novák ;  49%
Václav Dvořáková ;  18% + 0% + 25%
Martin Procházka ;  9/11
Věra Veselý ;  44/44
Milan Marková ;  93%
Alena Kučera ;  8/14
Věra Veselá ;  0% + 55%
Anna Černá ;  11/17
Josef Marek ;  37%
