Anna Procházková ;  12/12
Martin Nováková ;  31% + 22% + 14%
Michal Kučerová ;  8/22 + 7/14
Zdeněk Svobodová ;  86%
Jaroslav Němec ;  3% + 13% + 8%
Zdeněk Marek ;  32/94 + 12/70
Jiří Pospíšilová ;  69%
Lenka Horák ;  6%
Pavel Horák ;  55%
Tomáš Novotná ;  2% + 5%
Petr Veselá ;  86%
Michal Kučerová ;  82%
Václav Marková ;  19/38 + 6/42
Jaroslav Pokorná ;  67%
Jakub Horák ;  18% + 25%
Tomáš Černý ;  21/22
Lenka Horák ;  19/80 + 8/16
Josef Černá ;  72%
Jiří Novotná ;  4% + 68%
