Lenka Novák ;  1/4 + 2/32
Josef Němec ;  13/15
Milan Novák ;  38%
Jan Černý ;  2/4 + 1/12
Hana Horák ;  12/70 + 14/60
Milan Černá ;  41%
Věra Kučerová ;  3/24
Eva Horáková ;  19%
Hana Dvořáková ;  37%
Věra Veselá ;  16/52 + 5/68
Miroslav Kučera ;  64%
Tomáš Novotná ;  32/35
František Svobodová ;  8% + 14%
Kateřina Kučera ;  39%
Anna Svobodová ;  4/98 + 18/96
