Miroslav Veselý; 25% + 33%
Pavel Veselá; 88%
Pavel Horáková; 17/36
Kateřina Novák; 24/68 + 4/8
Martin Němec; 1% + 23% + 8%
Pavel Černý; 24/25
Eva Novotná; 3% + 3%
Lenka Procházková; 5% + 9% + 31%
Jan Svoboda; 20%
Marie Pokorná; 1% + 33%
Jiří Pospíšilová; 95%
Jana Svobodová; 0% + 9% + 16%
Miroslav Kučera; 26% + 6% + 29%
Zdeněk Němec; 93%
Pavel Pokorná; 58%
