Jiří Kučera ;  17/44 + 28/80
Alena Pospíšilová ;  68% + 24%
Michal Veselý ;  8% + 71%
František Černá ;  6/20 + 28/62
Marie Kučerová ;  70%
Michal Veselá ;  29/38
Josef Novotná ;  4/46 + 10/24
Jana Novotný ;  15/25
Milan Němec ;  1/12
Alena Nováková ;  27% + 19% + 5%
