Eva Dvořáková ;  1% + 6%
Eva Novák ;  62%
Lucie Černý ;  3% + 3%
Jakub Svoboda ;  47%
Kateřina Nováková ;  17% + 14% + 8%
Jana Horáková ;  48% + 25%
Milan Svoboda ;  10/25
Anna Horák ;  10%
Lenka Horáková ;  14/32
Kateřina Němcová ;  2/10
Miroslav Horáková ;  90%
Jaroslav Horáková ;  19/31
Marie Němcová ;  3/38 + 10/52
Hana Novák ;  37/44
Zdeněk Novotná ;  20% + 11% + 16%
Alena Novotný ;  12% + 30% + 16%
