Lenka Procházka ;  1% + 6% + 1%
Jiří Horák ;  15/100 + 1/64
Jana Nováková ;  16/20
Lucie Pokorná ;  3% + 56%
Lenka Veselý ;  57%
Alena Veselá ;  56%
Václav Němcová ;  46%
Anna Marek ;  15/26
Miroslav Procházková ;  91%
Lenka Dvořáková ;  63%
Marie Pokorná ;  4%
František Krejčí ;  72%
Eva Kučerová ;  91%
Miroslav Marek ;  44/46
Petr Kučera ;  3/7
Petr Němcová ;  9%
Hana Novák ;  15% + 11% + 30%
Marie Procházka ;  15% + 28% + 16%
