Marie Kučerová; 2/74 + 12/76
Petr Dvořák; 88%
Alena Marková; 22% + 13% + 14%
Petr Marková; 3%
Kateřina Veselá; 5/54 + 3/12
Tomáš Němec; 42%
Pavel Veselý; 26% + 5%
Lucie Procházková; 1/22 + 14/100
Jan Procházka; 2% + 22%
Martin Svoboda; 17/22
Hana Kučera; 7/30 + 11/88
