Pavel Svoboda; 16%
Pavel Novotný; 22% + 3% + 15%
Zdeněk Dvořáková; 70%
Jana Horák; 5% + 4%
Martin Marek; 11/20
Jana Svoboda; 24% + 23% + 12%
Lucie Pokorná; 9% + 10% + 17%
Martin Novotná; 14% + 11% + 9%
Marie Černý; 89%
Lenka Černá; 12% + 18%
Pavel Procházka; 26/90 + 13/54
Eva Černý; 1% + 50%
Josef Pokorná; 37% + 45%
Pavel Černý; 91%
Lucie Procházka; 25% + 2% + 32%
Anna Svobodová; 17% + 22% + 1%
