František Veselý; 6/9
Josef Nováková; 93%
Alena Veselý; 14% + 2%
Michal Němec; 66%
Martin Pospíšilová; 14/15
Zdeněk Němcová; 5% + 1%
Miroslav Veselý; 30%
Tomáš Kučera; 10% + 20% + 3%
Jiří Němec; 74%
Josef Svoboda; 31% + 30% + 27%
Eva Dvořák; 37% + 9%
Tomáš Veselá; 20% + 0% + 26%
Věra Procházka; 2% + 10% + 15%
Anna Dvořák; 83%
Martin Horák; 3/6 + 21/82
