Jana Marková; 8% + 9%
Petr Němcová; 78%
Kateřina Marková; 20% + 15%
Jaroslav Novotný; 0% + 5%
Jakub Procházka; 6/36 + 9/24
Lucie Dvořák; 2/47
Tomáš Dvořák; 74%
Tomáš Novotná; 45%
Zdeněk Pospíšilová; 67%
Kateřina Marek; 33/88 + 1/100
František Krejčí; 8/26
