Věra Němcová ;  35% + 18%
Jan Kučera ;  22/58 + 7/36
Jiří Kučerová ;  29% + 19% + 30%
Miroslav Horák ;  21/74 + 13/74
Petr Marková ;  82%
Eva Procházková ;  27/58 + 9/88
Michal Svoboda ;  16/58 + 11/40
Lenka Krejčí ;  70%
Anna Pospíšilová ;  6% + 5%
Jana Kučera ;  71%
Martin Nováková ;  89%
Anna Pospíšilová ;  17/23
Anna Pospíšilová ;  1% + 16% + 27%
Michal Krejčí ;  64%
Lucie Krejčí ;  3/52 + 19/84
