Jan Procházková; 27/38
Lenka Horáková; 4/20
Alena Dvořák; 17%
Milan Procházka; 4/17
Tomáš Dvořák; 4/7
Eva Svobodová; 9/13
Tomáš Horáková; 12/100 + 35/94
Milan Nováková; 65%
Alena Pokorná; 13/50 + 2/6
Alena Krejčí; 12/26
Miroslav Marek; 57%
Lenka Černá; 1/1
Josef Pokorná; 3/3
Lucie Němec; 87%
Tomáš Novotný; 36% + 62%
Jana Novotný; 5% + 11% + 24%
