Lenka Černý ;  73%
Lucie Svoboda ;  62%
Petr Černá ;  14%
Petr Dvořák ;  79%
Milan Procházka ;  11/13
Jaroslav Nováková ;  78% + 2%
Věra Procházka ;  32% + 26% + 10%
Eva Černá ;  26% + 23% + 25%
Alena Novotná ;  10% + 5% + 16%
Marie Pospíšilová ;  37%
