Hana Němec ;  3/16
Michal Černá ;  4/4
Lucie Kučera ;  4%
František Horák ;  18% + 15% + 22%
Jana Dvořáková ;  9/14
Lucie Krejčí ;  17%
Miroslav Němec ;  81%
Věra Novotná ;  18% + 29% + 10%
Jan Dvořáková ;  2/31
Anna Novotný ;  34% + 14%
Michal Marková ;  7/28
Miroslav Procházková ;  10% + 38%
Petr Veselá ;  4/4
Lucie Veselá ;  42/50
Michal Nováková ;  61%
Martin Krejčí ;  1% + 12% + 25%
Alena Kučera ;  99%
