Tomáš Horák ;  28/28
Lenka Svobodová ;  88%
Václav Svoboda ;  28%
Lenka Kučera ;  37/50
Miroslav Veselá ;  9/68 + 18/54
Věra Černý ;  2/12 + 33/92
Martin Horáková ;  57%
František Novotný ;  10%
Lucie Dvořák ;  13/33
Michal Novák ;  32% + 16% + 1%
Kateřina Novák ;  23/64 + 3/16
Jiří Procházka ;  37/47
Milan Veselý ;  0% + 24% + 27%
Jiří Dvořáková ;  25%
Marie Veselá ;  18% + 22% + 9%
Anna Pokorná ;  22% + 22% + 14%
