Anna Kučera; 98%
Věra Svoboda; 20/39
Hana Dvořáková; 3/3
Jaroslav Dvořák; 98%
Pavel Novotný; 32% + 43%
Lenka Horáková; 68%
Věra Černá; 15/33
Jiří Kučera; 4/25
Michal Veselá; 11% + 24% + 13%
Jaroslav Horák; 10/36
Alena Marek; 44% + 12%
Jana Němec; 3/36
Jana Černý; 17/42 + 18/76
Václav Horáková; 29/37
Václav Dvořáková; 9% + 31% + 26%
Petr Pokorná; 36/96 + 21/74
