František Krejčí; 2/13
Zdeněk Procházková; 2/5
Jan Veselá; 1% + 4% + 17%
Hana Veselá; 30/31
Anna Krejčí; 6/47
Eva Novotná; 6/33
Jakub Veselý; 6/6
Josef Němcová; 76% + 12%
Josef Svobodová; 23% + 3% + 23%
Jaroslav Nováková; 11/44 + 3/90
Jaroslav Černý; 22% + 29% + 8%
Kateřina Procházka; 36%
Hana Novák; 13/38
Jana Pospíšilová; 7%
Jaroslav Kučerová; 2% + 14% + 26%
Jakub Veselý; 89%
Miroslav Veselý; 18% + 16% + 16%
Alena Černá; 46%
Alena Pokorná; 90%
