Kateřina Němcová ;  56% + 13%
František Kučerová ;  90%
Jakub Marek ;  24% + 22% + 23%
Jiří Veselý ;  73% + 20%
Kateřina Němec ;  18% + 80%
Zdeněk Černá ;  92%
Pavel Horák ;  7/35
Jakub Novák ;  17/32
Martin Pokorná ;  69%
Lucie Novotná ;  55%
Petr Marek ;  27/40
Pavel Marková ;  0%
