Kateřina Novotná ;  3/11
Hana Novák ;  24/36
Jaroslav Horáková ;  79%
Pavel Kučerová ;  7/12
František Krejčí ;  51% + 32%
Martin Horák ;  78%
Jakub Veselá ;  38%
Jakub Marek ;  7% + 12%
František Nováková ;  10/50 + 21/92
Václav Novotný ;  32%
Pavel Černá ;  58%
Petr Pokorná ;  26%
Milan Veselá ;  1/16
František Černý ;  16/64 + 22/68
Hana Kučerová ;  4/40
Lenka Horák ;  15% + 31%
Milan Procházka ;  4% + 1%
Jana Horáková ;  29/88 + 27/60
