Pavel Novák ;  31% + 18% + 9%
Marie Procházková ;  15% + 6% + 3%
Jiří Procházková ;  1/46
Lucie Procházka ;  13% + 33% + 30%
Hana Marek ;  94%
Hana Procházková ;  1% + 29% + 7%
Lucie Němcová ;  32% + 24% + 18%
Josef Kučerová ;  9% + 21% + 14%
Petr Svobodová ;  31% + 14% + 10%
Miroslav Procházka ;  36%
Michal Krejčí ;  19/40 + 1/16
Michal Dvořák ;  1% + 14%
Tomáš Krejčí ;  9%
