Milan Dvořáková; 40/84 + 3/12
Milan Němcová; 19% + 8% + 12%
Josef Kučera; 9/12
František Černá; 98%
Milan Černá; 72%
Lenka Dvořáková; 89%
Jan Dvořák; 15/43
Zdeněk Němcová; 10%
Václav Svobodová; 5/6
František Novotná; 7% + 71%
Věra Novák; 30% + 53%
