Alena Němcová; 14% + 38%
Eva Černý; 48%
Anna Veselý; 36%
Martin Kučera; 19/26
Martin Dvořák; 35%
Marie Marková; 26/80 + 2/38
Anna Pospíšilová; 5%
Petr Novák; 59%
Kateřina Novák; 10/31
Jan Horák; 20% + 27% + 12%
Tomáš Veselý; 1% + 16% + 20%
Václav Marek; 33/68 + 7/48
Milan Marková; 42/47
Miroslav Horáková; 15/16
Zdeněk Procházka; 10/30
Martin Dvořák; 16/32
