Václav Němec; 9/66 + 10/78
Jaroslav Marková; 21/37
Hana Kučerová; 1/4 + 25/50
Lenka Kučera; 19%
Pavel Dvořáková; 1/5
Hana Pokorná; 84%
Lucie Procházková; 97%
Eva Dvořáková; 9% + 30% + 22%
Pavel Procházková; 8/26
Hana Němcová; 10/25
Jana Novotný; 1% + 16% + 31%
Lenka Svobodová; 74%
Lucie Marková; 26/96 + 18/50
Jan Novák; 64%
