Jan Procházková; 4% + 25% + 17%
Lucie Kučera; 5/30 + 11/54
Marie Černý; 1/5
Václav Krejčí; 1/6
Zdeněk Nováková; 28% + 14% + 21%
Jan Černá; 16/24
Jana Marková; 3/34
Eva Černý; 8/12
Josef Novotný; 5% + 6%
Věra Marek; 2/6 + 8/48
Zdeněk Procházková; 22%
Pavel Němcová; 13%
Věra Černá; 40%
Josef Veselá; 48%
