Lucie Němec; 15/17
Jan Svoboda; 30% + 24% + 9%
Jakub Němcová; 7/68 + 11/22
Marie Krejčí; 49%
Jaroslav Němcová; 48%
Kateřina Procházková; 56%
Kateřina Procházka; 1/4 + 1/12
Lenka Kučera; 71%
Jan Němcová; 59% + 8%
Pavel Černá; 3% + 24% + 28%
Hana Pospíšilová; 55%
Kateřina Dvořáková; 22% + 25% + 20%
Jan Svoboda; 1% + 15% + 6%
Petr Horák; 22% + 4% + 33%
