Marie Svoboda; 2/6 + 30/70
Eva Marek; 15/48
Věra Svoboda; 1% + 22% + 31%
Hana Novotná; 8/39
Pavel Novotný; 9/36
Lucie Nováková; 30/32
Lucie Veselý; 72%
Petr Novotný; 1/6 + 17/38
Anna Kučera; 62%
Jakub Veselá; 10/44 + 2/4
Tomáš Němcová; 4/8
Jakub Marek; 19% + 33%
Lucie Veselá; 25/40
