Milan Pospíšilová; 2/16 + 11/24
Michal Svobodová; 94%
Zdeněk Horáková; 69%
Tomáš Svobodová; 4% + 86%
Jan Marek; 2/2
František Dvořáková; 4% + 4%
Jana Procházková; 46%
Věra Procházka; 6/27
František Procházka; 16%
Zdeněk Marek; 97%
Miroslav Marek; 16/31
Petr Černá; 43%
Marie Němec; 14%
Anna Pokorná; 32/47
Anna Novotný; 37%
Eva Procházková; 80%
