Jan Novák; 39%
Jakub Černý; 29/38
Věra Horák; 29/41
Kateřina Veselý; 25/40
Jan Veselý; 2%
Martin Dvořáková; 10/20
Jakub Procházková; 36%
Tomáš Horák; 22/82 + 15/60
Anna Veselý; 26%
Alena Novák; 68% + 19%
Petr Kučerová; 43%
Kateřina Procházka; 1/6 + 8/16
Lenka Veselý; 9%
Zdeněk Svoboda; 4% + 4% + 1%
