Marie Pokorná; 12/42 + 22/62
Josef Dvořáková; 0% + 22% + 16%
Michal Němec; 9/18 + 18/44
Václav Novotný; 5/10
Eva Novotný; 73%
Marie Procházka; 98%
Václav Nováková; 10/29
Anna Krejčí; 15/16
Anna Svobodová; 16%
Milan Novotný; 75%
Josef Svoboda; 17%
Anna Černá; 48/49
