Václav Němec; 27/36
Michal Dvořáková; 76%
Tomáš Horáková; 31%
Martin Marková; 20/54 + 7/14
Jakub Kučera; 6/68 + 1/50
Pavel Novák; 8/26
Petr Pokorná; 86%
Petr Dvořáková; 4/14
Jiří Němec; 64%
Miroslav Procházková; 10/38
Anna Veselá; 13%
Marie Kučera; 1/46 + 14/64
Petr Černý; 18% + 14% + 29%
Kateřina Němec; 18% + 29% + 22%
Michal Horák; 34% + 4%
František Kučerová; 24%
Martin Kučerová; 3/16 + 14/78
