Kateřina Novák; 48%
Petr Pokorná; 16/20
Martin Pospíšilová; 30%
Jaroslav Novotný; 7% + 7%
Lucie Novák; 12% + 57%
Anna Horáková; 9/17
Michal Novotná; 1/1
Josef Horáková; 15/16
Lucie Procházková; 3% + 25% + 11%
Josef Pokorná; 31% + 23% + 31%
Kateřina Dvořák; 11/13
Václav Němcová; 9/27
Jaroslav Nováková; 65% + 14%
