Milan Kučera; 6/6
Josef Marková; 2/2
Petr Procházka; 14%
Jan Kučerová; 14/38 + 8/26
Petr Svobodová; 36% + 12%
Kateřina Němcová; 11/28 + 24/52
František Nováková; 13% + 26% + 31%
Anna Svobodová; 23% + 9% + 25%
Michal Veselý; 4% + 32% + 22%
Marie Procházková; 5% + 11% + 17%
