Anna Pokorná ;  94%
Lucie Kučera ;  37/41
Martin Svobodová ;  0% + 40%
Kateřina Novotná ;  16/16
Jaroslav Dvořák ;  11% + 8%
Pavel Dvořák ;  1/1
Miroslav Svobodová ;  16% + 23% + 7%
Zdeněk Dvořáková ;  61%
Jaroslav Marková ;  30%
Tomáš Kučerová ;  13% + 48%
Zdeněk Pokorná ;  18% + 38%
Eva Dvořák ;  53% + 26%
