Petr Horáková ;  41/47
Martin Pokorná ;  17/36 + 16/54
Martin Procházková ;  87%
Lucie Marek ;  23% + 19% + 24%
Jakub Novotná ;  1/4
Martin Marková ;  20/38
František Horák ;  45%
Hana Pospíšilová ;  10% + 14% + 5%
Martin Němec ;  3/9
František Dvořáková ;  88%
Zdeněk Dvořáková ;  5/34
