František Veselý; 34/40
Michal Marek; 2/3
Anna Nováková; 1/1
Anna Krejčí; 87%
Pavel Černý; 30%
Hana Krejčí; 3/8
Miroslav Horáková; 15/60 + 21/56
Alena Pospíšilová; 21/33
Michal Novotný; 1% + 25%
Petr Svobodová; 4%
Michal Procházková; 12/15
Jan Dvořáková; 9/20
Jan Černá; 19%
Pavel Černý; 73% + 8%
Václav Nováková; 24%
Lenka Dvořák; 8/16 + 5/30
Hana Němcová; 23%
Pavel Černá; 32/32
