Eva Marek; 6/34 + 6/72
Tomáš Marek; 27/68 + 29/68
Hana Procházka; 29%
František Krejčí; 3% + 20% + 2%
Jiří Pokorná; 22/26
Zdeněk Marek; 8/32
Pavel Černá; 10/13
Jana Pokorná; 90% + 3%
Věra Pokorná; 50%
Eva Černý; 14/92 + 15/54
Jana Svobodová; 58% + 40%
Milan Horák; 14/48
Jiří Kučerová; 47% + 4%
Lucie Svoboda; 2/9
Josef Nováková; 8/38 + 35/80
Anna Veselá; 11%
Miroslav Marek; 19/84 + 9/18
Václav Kučera; 9% + 7%
