Miroslav Kučera ;  2/10
Lucie Horáková ;  21%
Lenka Dvořáková ;  22%
Lenka Pokorná ;  4/16
Pavel Němcová ;  13% + 22% + 21%
Jakub Černá ;  69%
Lucie Novotná ;  4% + 31% + 22%
Věra Horák ;  30%
Lucie Marková ;  28% + 23% + 6%
Eva Němcová ;  25% + 31% + 16%
Martin Procházková ;  35/44
