Věra Marková; 42%
Hana Němec; 60%
Michal Novák; 1/80 + 1/4
Miroslav Horáková; 31% + 41%
Miroslav Němec; 6/10
Tomáš Krejčí; 17% + 2%
Josef Krejčí; 3/46 + 24/76
Alena Procházková; 29% + 13% + 14%
Petr Veselý; 89% + 5%
Václav Kučera; 26% + 29%
Michal Dvořák; 5%
