Václav Procházka; 71%
Jana Pospíšilová; 11% + 29% + 11%
Jan Veselý; 82%
Marie Kučerová; 14/40 + 6/12
Jiří Marková; 9/19
Martin Nováková; 58%
Václav Veselá; 1/44
Václav Procházková; 3/50 + 2/4
Marie Dvořáková; 6/12
František Černá; 22/94 + 4/72
Jan Němcová; 34%
Hana Veselý; 69%
Věra Veselý; 14%
Václav Kučera; 36% + 48%
Věra Horák; 0% + 43%
Michal Veselá; 20% + 6%
Jana Svoboda; 29%
