Lenka Marek; 7% + 38%
Pavel Novotný; 65%
Alena Pospíšilová; 20% + 5% + 3%
Jakub Horáková; 13/17
Petr Procházková; 6/56 + 35/70
Věra Nováková; 26/72 + 23/70
Jaroslav Krejčí; 33% + 5% + 17%
Pavel Veselý; 9/47
Milan Novák; 2%
Alena Kučerová; 78%
Alena Horák; 24%
Zdeněk Veselý; 17/19
Jan Procházková; 15% + 23%
Hana Němcová; 6/22 + 3/18
Hana Nováková; 7% + 14% + 21%
Hana Marek; 13/24
Jana Horák; 23/28
Jakub Horák; 26% + 21% + 32%
Jakub Novotná; 22% + 11% + 25%
