Hana Procházková; 19% + 2% + 0%
Jiří Kučera; 13%
Jana Svoboda; 37%
Jiří Marková; 6% + 21% + 24%
Martin Kučera; 95%
Lucie Pokorná; 16/42
Michal Veselá; 7/42 + 1/2
Kateřina Dvořáková; 9%
Jan Svoboda; 46% + 12%
Zdeněk Procházková; 13/34
Jakub Pokorná; 9% + 17%
