Marie Svobodová; 8% + 19% + 3%
Hana Horáková; 15/15
Eva Veselý; 85%
Hana Pokorná; 96%
Lucie Novák; 37/86 + 5/30
Milan Novotný; 5%
Lenka Pokorná; 61%
Věra Pokorná; 4/60 + 35/98
Lucie Marek; 10/28 + 2/10
Václav Němec; 5/10 + 21/84
Martin Němec; 18/32
Tomáš Pospíšilová; 3/86 + 18/44
Věra Veselá; 3/8
Alena Kučera; 9%
Petr Kučera; 40%
Jiří Pospíšilová; 20/47
Martin Nováková; 9/31
