Anna Černý; 19/37
Milan Horáková; 96%
Miroslav Marková; 15%
Věra Horák; 73%
Tomáš Veselý; 46/98 + 5/60
Milan Novák; 17/54 + 14/60
Jiří Svobodová; 5/5
Anna Svoboda; 3/3
Petr Němec; 75%
Tomáš Svobodová; 95%
Jana Marková; 0% + 3%
