Jan Novák; 43% + 16%
Eva Němcová; 3/39
Josef Kučerová; 5% + 29%
Josef Krejčí; 12% + 79%
Michal Kučera; 60% + 20%
Martin Dvořáková; 3/3
Jana Nováková; 13% + 32%
Eva Pokorná; 10/64 + 11/66
Václav Nováková; 11% + 36%
Miroslav Černý; 3% + 67%
Marie Horák; 50%
Hana Černá; 29% + 1%
Věra Němec; 21% + 30% + 5%
Kateřina Pospíšilová; 38%
Petr Němcová; 26/80 + 3/10
Anna Němec; 24/44
Jana Horák; 2% + 0% + 5%
Martin Dvořák; 8/9
Lenka Horáková; 26% + 14%
