Jana Kučerová ;  73%
Václav Kučera ;  23/56 + 6/44
Lenka Pospíšilová ;  8% + 49%
Petr Marková ;  58%
Jiří Horák ;  38% + 12%
Alena Nováková ;  12% + 28% + 23%
Jiří Svoboda ;  20/48
Jakub Novotný ;  10% + 1%
František Horák ;  23% + 30% + 14%
Milan Procházka ;  10% + 1% + 26%
Václav Nováková ;  7/72 + 26/60
Martin Kučera ;  9% + 76%
Tomáš Krejčí ;  15%
Jaroslav Horáková ;  10/33
František Marková ;  27% + 3% + 15%
Hana Dvořáková ;  71%
Jan Horák ;  21% + 65%
Tomáš Procházka ;  7/21
