Marie Pospíšilová; 14% + 10%
Václav Pospíšilová; 41%
Pavel Veselý; 41/46
Miroslav Pokorná; 1/2 + 2/78
Martin Černý; 29% + 11% + 13%
Alena Němcová; 44%
Tomáš Dvořák; 19% + 13% + 12%
Josef Pospíšilová; 82%
Lenka Němec; 28% + 8% + 9%
Jana Horák; 11% + 14%
Pavel Marek; 20% + 30% + 8%
Lenka Svobodová; 5% + 2%
Lucie Procházka; 5/9
Jiří Němcová; 31%
Martin Pospíšilová; 16%
Pavel Horáková; 4/68 + 27/84
Alena Novotný; 45/92 + 10/44
Eva Němcová; 4%
Marie Novák; 48% + 5%
