Jan Nováková; 29/49
Josef Kučera; 39%
Miroslav Krejčí; 28% + 47%
Anna Novotný; 34%
Marie Novák; 11% + 5%
Miroslav Černý; 5/9
Věra Němec; 60%
Lenka Procházka; 3/4
Lucie Marek; 34/36
Josef Dvořáková; 69%
Zdeněk Horáková; 77%
Václav Němec; 3/6
