Věra Horák ;  45%
Jakub Svoboda ;  13/80 + 24/54
Hana Černý ;  35/88 + 17/40
Anna Dvořák ;  9%
Josef Krejčí ;  63%
Michal Krejčí ;  1% + 6% + 23%
Jan Černá ;  2/6
Josef Marková ;  28/36
Hana Procházková ;  17/58 + 27/54
Věra Novotná ;  8/13
Michal Novotný ;  2% + 43%
Jan Krejčí ;  27% + 57%
Věra Němec ;  65%
Anna Procházka ;  78%
Josef Novotný ;  8% + 24% + 30%
Jaroslav Novák ;  2/38 + 2/82
Jana Marková ;  31/96 + 4/66
