Michal Svobodová ;  27% + 48%
Zdeněk Svobodová ;  49%
Jan Dvořák ;  5/11
Eva Dvořák ;  61%
Jiří Procházka ;  50%
František Němcová ;  10% + 2%
Jakub Novotný ;  13%
Alena Pokorná ;  7% + 62%
Alena Svobodová ;  8/14
Alena Černý ;  27%
Josef Veselý ;  47%
Kateřina Horák ;  7/36
Jiří Veselá ;  96%
Jan Veselý ;  3/8 + 42/88
Pavel Dvořáková ;  9/64 + 1/2
Jana Svobodová ;  26%
Lucie Marek ;  80%
Lucie Svobodová ;  84%
Milan Krejčí ;  1/13
