Marie Horák ;  46%
Jaroslav Novotná ;  35% + 4%
Jaroslav Marková ;  47%
Jakub Kučerová ;  32/64 + 12/30
Jiří Novotný ;  9% + 30% + 27%
Miroslav Novák ;  7/28 + 15/86
Tomáš Procházková ;  58%
Pavel Procházka ;  34%
Martin Novotná ;  7% + 30%
Josef Pokorná ;  64%
Jiří Procházka ;  9/9
Hana Kučerová ;  32% + 29% + 0%
František Kučerová ;  26% + 7% + 17%
Pavel Procházka ;  87%
Alena Nováková ;  1% + 11%
Michal Dvořáková ;  62%
Petr Procházka ;  4/9
