Pavel Novák ;  0% + 2%
Alena Nováková ;  9/14
Martin Marková ;  0% + 13%
Eva Novák ;  30% + 67%
Anna Kučera ;  7/56 + 9/78
Hana Marková ;  8% + 70%
Michal Kučerová ;  41%
Tomáš Pospíšilová ;  26% + 7%
Michal Nováková ;  36%
Tomáš Pokorná ;  18% + 22% + 18%
Alena Němcová ;  99%
