Lucie Černý ;  14/80 + 5/30
Petr Procházková ;  9/14
Eva Dvořáková ;  4% + 5% + 32%
Jaroslav Svobodová ;  28%
Milan Horáková ;  6/40
Josef Horáková ;  0% + 43%
Anna Veselý ;  8%
Jakub Procházková ;  41/41
Josef Novák ;  23/46
Zdeněk Pokorná ;  52%
Věra Svoboda ;  40%
Petr Procházková ;  17/19
Lenka Pokorná ;  30%
Alena Svoboda ;  86%
