Jiří Dvořák ;  14/54 + 25/68
Tomáš Pokorná ;  22/100 + 9/28
Jakub Němec ;  4/82 + 1/8
Lucie Kučerová ;  68%
Jiří Černá ;  13% + 66%
Lenka Němec ;  1/4
Martin Marek ;  35%
Martin Nováková ;  27%
Anna Novák ;  26% + 18% + 0%
Lenka Pokorná ;  11% + 48%
Miroslav Kučera ;  21/40
Pavel Pokorná ;  31/33
Tomáš Černá ;  57%
Lenka Novotná ;  96%
Milan Kučera ;  0% + 5%
Marie Kučerová ;  27/96 + 12/34
Václav Procházková ;  16% + 41%
Martin Dvořáková ;  27/31
