Jan Němec ;  61%
Eva Dvořáková ;  23/43
Josef Černý ;  28/56 + 32/82
Kateřina Svoboda ;  1/2
Jan Procházka ;  26%
Alena Krejčí ;  65%
František Pokorná ;  30/41
Hana Dvořák ;  57% + 10%
Jan Pokorná ;  63%
Jiří Horáková ;  24/38
Petr Dvořáková ;  7/13
Josef Procházková ;  20% + 26% + 26%
Hana Dvořáková ;  10% + 22%
Hana Němcová ;  45%
Jana Svoboda ;  31% + 21%
Zdeněk Kučerová ;  29/50
Miroslav Černá ;  34%
