Lenka Němec; 33%
Jana Svoboda; 74%
Alena Novotný; 9%
Michal Svoboda; 3/15
Anna Černý; 80% + 17%
Zdeněk Veselá; 1/18
Jakub Pokorná; 76%
Kateřina Nováková; 2/24
Václav Novák; 21/42 + 1/2
Lucie Kučerová; 13% + 20% + 28%
Lenka Černá; 2/10 + 35/80
Alena Pokorná; 16/60 + 2/12
Anna Němec; 7/35
