Petr Veselá ;  15% + 5% + 9%
Jaroslav Dvořák ;  1/7
Zdeněk Dvořák ;  7% + 5% + 4%
Zdeněk Marková ;  12/13
Jaroslav Dvořák ;  5/44
Jaroslav Novotná ;  19% + 15%
Kateřina Procházka ;  7/14
Jakub Dvořáková ;  83% + 9%
Eva Nováková ;  3/32
František Černá ;  10/20 + 11/56
Anna Černý ;  21%
