Lucie Novák ;  13% + 3%
Lenka Veselá ;  1% + 6%
Lucie Marek ;  9% + 7% + 17%
Eva Dvořák ;  3/19
Anna Kučerová ;  54% + 30%
Marie Veselá ;  82%
Pavel Dvořáková ;  2% + 30%
Jiří Kučera ;  15% + 0% + 2%
Jaroslav Pokorná ;  12/25
Eva Marek ;  5/30
