Hana Marek; 1/2 + 13/34
Anna Němcová; 28%
Marie Procházková; 29/100 + 13/96
Alena Pospíšilová; 12/38
Lenka Pokorná; 19/21
Marie Černá; 29%
Hana Černý; 23% + 23% + 22%
František Novák; 52%
Michal Novotný; 27/37
Marie Horák; 2/5
