Jiří Němec; 35%
Tomáš Novák; 1% + 27%
Jakub Dvořák; 21% + 36%
Lucie Pokorná; 69%
Hana Horák; 1/9
Milan Pospíšilová; 55%
Kateřina Svoboda; 9/36 + 11/78
Marie Dvořáková; 31/68 + 20/44
Martin Pokorná; 34/41
Věra Veselý; 28% + 12% + 6%
Miroslav Procházka; 3/14
Eva Veselý; 4/39
Michal Veselý; 90%
Lenka Němcová; 1/5
Jiří Dvořák; 59%
