Václav Němcová; 30% + 10% + 3%
Lenka Novák; 11% + 8% + 6%
Zdeněk Krejčí; 24% + 2% + 0%
Josef Krejčí; 57%
Michal Novák; 28/34
Jan Pospíšilová; 11% + 1% + 16%
Marie Němec; 54%
Jana Kučera; 2/6
Kateřina Horák; 23/48 + 14/42
Věra Horák; 68%
Věra Dvořák; 16% + 9%
Hana Veselý; 16%
Pavel Němec; 8% + 2% + 10%
