Pavel Svoboda ;  3% + 19% + 20%
Lucie Novák ;  19%
Alena Novotná ;  9/24 + 1/30
Petr Krejčí ;  44% + 28%
Věra Procházka ;  10%
Jiří Kučerová ;  8%
Miroslav Němec ;  74%
Jakub Svobodová ;  15% + 58%
Lucie Dvořáková ;  16/43
Hana Pospíšilová ;  12% + 78%
Eva Nováková ;  4%
Milan Nováková ;  3/44 + 5/38
