Jana Němcová; 9% + 20%
Lenka Procházková; 12/33
František Marek; 8/70 + 2/30
František Krejčí; 48%
Zdeněk Horáková; 2%
Jan Němec; 5/28
Josef Procházka; 87%
Pavel Svobodová; 19% + 11%
Pavel Pospíšilová; 1/2
František Veselá; 11% + 32% + 26%
Eva Černá; 4% + 3%
