Václav Veselá ;  10/33
Miroslav Horák ;  0% + 24% + 29%
Marie Novotná ;  32% + 0% + 15%
Zdeněk Novotná ;  8/12
Jan Veselý ;  28%
Petr Kučera ;  17/32
Michal Veselá ;  94%
Lucie Svoboda ;  3% + 8%
Petr Veselý ;  3/8
Josef Novotná ;  37%
Lucie Pokorná ;  39/47
Václav Krejčí ;  38%
Jana Procházka ;  13/49
František Dvořák ;  93%
Lucie Svoboda ;  3% + 3%
Petr Svobodová ;  1% + 4%
František Kučerová ;  32%
