Věra Procházka ;  96%
Jana Dvořák ;  82%
Tomáš Pospíšilová ;  5/42
Tomáš Němec ;  3/4
Jakub Černá ;  6/11
Lucie Němec ;  13% + 0% + 14%
Hana Černá ;  5/13
Jiří Pokorná ;  1/29
Lenka Krejčí ;  12/36 + 3/76
Marie Svoboda ;  32% + 46%
Petr Kučerová ;  34% + 18%
Jan Pokorná ;  5/42
