Jana Veselá ;  3/36 + 9/88
Eva Veselá ;  17%
Jaroslav Němec ;  36/48
František Novotná ;  6/28 + 27/70
Petr Černý ;  11/16
Kateřina Dvořák ;  9% + 3%
Eva Němcová ;  39/48
Jan Marková ;  63%
Miroslav Dvořák ;  17/45
Miroslav Novák ;  59%
Jaroslav Veselý ;  21%
Josef Kučerová ;  22% + 2% + 3%
Martin Kučerová ;  41% + 35%
Jan Krejčí ;  74%
Jiří Horák ;  38%
Jakub Marková ;  1/23
Zdeněk Veselý ;  1/50 + 11/78
Petr Dvořáková ;  1% + 78%
