Kateřina Novák ;  14% + 56%
Miroslav Svobodová ;  39/42
Jakub Horáková ;  3%
Jaroslav Kučera ;  58%
Lucie Novák ;  18/34
Kateřina Černý ;  39/43
Lenka Horák ;  20%
Tomáš Dvořáková ;  11% + 83%
Marie Kučera ;  39%
František Marek ;  3% + 32% + 23%
Lenka Němec ;  1% + 21% + 31%
