Michal Marková ;  13/47
Lenka Pospíšilová ;  18% + 25% + 14%
Jana Horák ;  13/37
František Krejčí ;  17% + 15% + 10%
Tomáš Kučerová ;  12/26
Martin Veselá ;  13/80 + 1/6
Jakub Veselá ;  30/72 + 19/40
František Svoboda ;  10%
Zdeněk Marková ;  89%
Jaroslav Veselý ;  85% + 5%
Eva Nováková ;  41%
Jaroslav Novotný ;  71%
Milan Pokorná ;  31%
Jana Procházka ;  5/18
Jiří Marková ;  6/13
Jana Dvořáková ;  30% + 18% + 1%
Anna Pospíšilová ;  31/31
Tomáš Veselý ;  15/34
