Lucie Novotná; 26% + 8% + 6%
Jiří Novotná; 56% + 5%
Jaroslav Pokorná; 82%
Václav Dvořáková; 70%
Lenka Pokorná; 96%
Anna Novotný; 11% + 40%
Pavel Pospíšilová; 4/21
Hana Marek; 31% + 4% + 22%
Pavel Dvořák; 21/27
Marie Novotný; 34/88 + 17/72
Michal Novotná; 83%
Josef Němec; 10/20 + 8/16
Kateřina Němcová; 15/33
Pavel Horák; 86%
Alena Procházková; 5% + 22%
Miroslav Marková; 1/39
Michal Veselý; 14%
Milan Nováková; 1/10
Jaroslav Kučera; 57%
