Marie Kučerová ;  17% + 4% + 20%
Eva Veselá ;  9/24 + 4/24
Tomáš Novák ;  1% + 13%
Kateřina Novotná ;  9% + 9%
Alena Němcová ;  63% + 18%
Hana Kučera ;  54%
Miroslav Nováková ;  8/17
Petr Marek ;  32%
Václav Němec ;  23% + 8% + 12%
Lucie Černá ;  8/100 + 16/66
Tomáš Dvořáková ;  5/27
