Jiří Kučerová; 12/60 + 21/42
Jan Veselý; 90%
Michal Novák; 7% + 33%
Milan Procházková; 5% + 73%
Jakub Dvořák; 45%
Pavel Pokorná; 8/30
Jaroslav Černá; 1%
Martin Veselý; 4/20
Lucie Horáková; 11/35
Hana Horák; 7/39
