Eva Pospíšilová ;  21%
Miroslav Horák ;  18/82 + 28/90
Pavel Novotný ;  40%
Zdeněk Horák ;  18% + 53%
Václav Černá ;  21% + 38%
František Marek ;  19/31
Jaroslav Němec ;  1/4
Jan Novotný ;  12/58 + 2/10
Lucie Svobodová ;  23% + 8%
Tomáš Dvořák ;  24/33
Michal Marek ;  26% + 24% + 5%
