Anna Procházková ;  8/68 + 1/2
Lenka Marková ;  27/94 + 2/22
Josef Kučera ;  8% + 2% + 17%
Lucie Svoboda ;  28% + 24% + 0%
Václav Krejčí ;  6%
Lucie Pospíšilová ;  28% + 2% + 32%
Martin Krejčí ;  15%
Anna Černá ;  11%
Jana Marková ;  77%
Lenka Němcová ;  26/56 + 13/76
Michal Pokorná ;  1/2 + 21/52
Anna Kučerová ;  3/12 + 25/62
Michal Novotný ;  21/27
Tomáš Procházková ;  22/94 + 1/4
František Veselá ;  34/45
Jan Němec ;  22% + 3% + 7%
