Alena Novotný ;  11% + 27% + 25%
Hana Černý ;  17/34
Martin Dvořák ;  17/23
Hana Veselá ;  8/11
Milan Pospíšilová ;  3%
Jiří Nováková ;  19%
Jaroslav Horáková ;  10/32 + 12/68
Tomáš Novotná ;  6%
Jana Novák ;  16% + 18% + 30%
Jana Marková ;  55%
Jan Krejčí ;  38% + 30%
Petr Němec ;  82%
Anna Procházka ;  3/6 + 3/14
Věra Novák ;  15% + 29% + 32%
Anna Němec ;  41/50
Lenka Němec ;  23% + 58%
