Kateřina Nováková ;  16/86 + 6/52
Václav Němcová ;  3/40
Jana Novák ;  23/35
Jan Nováková ;  42% + 1%
Jana Novák ;  35%
Tomáš Svoboda ;  71%
Jan Marková ;  41%
Josef Krejčí ;  9/19
Josef Pokorná ;  2% + 10% + 26%
Jiří Němec ;  7/7
Lenka Svobodová ;  37/86 + 10/20
Anna Veselý ;  1/5
Martin Dvořáková ;  47%
Hana Veselá ;  10%
František Procházka ;  12% + 25% + 15%
Josef Němcová ;  98%
Martin Veselý ;  40%
Petr Krejčí ;  40%
