Milan Marek ;  83%
Michal Dvořáková ;  8/19
Petr Novák ;  19/90 + 17/92
Hana Pokorná ;  53% + 34%
Věra Nováková ;  6% + 33%
Tomáš Dvořák ;  27/50
Petr Pospíšilová ;  4/8 + 27/56
Jakub Černá ;  7/90 + 31/80
Lenka Černý ;  26% + 22% + 8%
Alena Nováková ;  25% + 9% + 26%
František Dvořák ;  21/44
