Jaroslav Novák; 19%
Věra Dvořák; 32% + 18% + 16%
Marie Novák; 6/24 + 10/44
Jan Veselý; 24%
Marie Veselá; 82%
Věra Pokorná; 23/31
Jakub Procházková; 38% + 18%
Michal Novák; 13/13
Anna Černá; 3/3
Jiří Nováková; 43%
Milan Dvořák; 22% + 11%
Jiří Černý; 91%
Pavel Černá; 7/31
Václav Dvořák; 4/38 + 2/8
Eva Pokorná; 29% + 0% + 1%
Michal Kučera; 7% + 5%
Věra Veselá; 7/8
Martin Veselý; 10%
Pavel Černý; 17% + 30% + 11%
