Josef Kučera ;  63%
Tomáš Svoboda ;  6/23
Petr Procházka ;  25% + 33% + 30%
Věra Procházková ;  54% + 18%
Josef Novák ;  3% + 8%
Eva Procházka ;  47% + 9%
Michal Marek ;  1/1
Tomáš Veselá ;  69%
Věra Černá ;  6%
Hana Pospíšilová ;  52%
Zdeněk Kučera ;  5/23
Věra Procházka ;  15/27
Anna Pospíšilová ;  14/26
Jana Novák ;  48%
Martin Novák ;  75%
Milan Marek ;  4% + 41%
Jaroslav Procházka ;  29% + 18% + 29%
Alena Svobodová ;  2/18 + 15/70
Jan Nováková ;  93%
