Tomáš Novák; 2% + 20% + 7%
Milan Horák; 7/16
Milan Pospíšilová; 43/47
Petr Pokorná; 12/58 + 30/88
Milan Veselá; 52%
Jiří Marek; 18% + 20% + 16%
Zdeněk Pospíšilová; 8/23
František Procházková; 2/8
Josef Němec; 5/16
Jan Veselý; 18%
Martin Černá; 31% + 9% + 4%
Lucie Němec; 1% + 1%
Jaroslav Dvořáková; 1/4 + 1/74
Hana Černá; 16/74 + 5/14
Marie Procházka; 19% + 12% + 9%
Zdeněk Kučera; 1/2
