Václav Marek ;  40/40
Martin Svoboda ;  15% + 12% + 23%
Tomáš Marek ;  5% + 27% + 30%
Martin Dvořáková ;  95%
Hana Kučera ;  10% + 23% + 27%
Anna Marková ;  7% + 32% + 4%
Pavel Veselá ;  62%
Tomáš Veselý ;  88%
Milan Pokorná ;  20% + 1%
Anna Horák ;  9% + 26% + 9%
František Němec ;  16/44
Milan Krejčí ;  36/48
Lucie Marek ;  1/23
Věra Veselý ;  21%
