Zdeněk Veselá ;  12% + 5%
Milan Novák ;  20/29
Marie Veselá ;  43/47
František Němec ;  7/19
Michal Marek ;  87%
Jaroslav Horáková ;  94%
Jiří Němcová ;  16/37
Martin Marek ;  97%
Pavel Novotná ;  25/78 + 5/94
Alena Černá ;  52%
Jiří Kučera ;  20/23
Alena Nováková ;  40%
Jaroslav Novotná ;  17/20
Martin Dvořák ;  21%
Alena Krejčí ;  1/28 + 33/82
