Věra Marek ;  57%
František Svoboda ;  1% + 27% + 19%
Anna Procházková ;  41%
Zdeněk Marek ;  10/45
Jana Dvořáková ;  5/44
Marie Nováková ;  10/25
Josef Horáková ;  1/8
Jaroslav Dvořáková ;  18% + 71%
Kateřina Nováková ;  9/28 + 5/16
Michal Procházková ;  18% + 9%
Hana Kučera ;  1% + 10% + 2%
Hana Horáková ;  8% + 47%
