Věra Procházka; 33/66 + 1/4
Marie Nováková; 70% + 25%
Milan Veselý; 31% + 33% + 22%
Martin Novák; 99%
Jakub Novák; 43%
Václav Pokorná; 33/48
Jiří Pokorná; 64%
Martin Novotný; 28% + 25% + 4%
Jiří Nováková; 3/18 + 12/32
Jan Dvořáková; 19/20
Pavel Kučera; 20/32
Lucie Kučerová; 8/42
Anna Dvořáková; 1/4 + 21/72
Josef Novák; 5/31
Anna Horáková; 53%
Václav Kučerová; 16% + 55%
