Kateřina Kučerová; 72%
Tomáš Černý; 41/44
Michal Veselá; 9/49
Anna Pokorná; 32% + 23% + 11%
Jana Procházková; 83%
Kateřina Krejčí; 11/13
Jakub Krejčí; 41%
Kateřina Marková; 44%
Milan Veselý; 6/12
Marie Horáková; 29/96 + 26/74
Tomáš Marek; 2%
Zdeněk Kučera; 68%
Jana Pokorná; 17% + 17% + 30%
Zdeněk Dvořák; 80%
Jakub Kučerová; 1% + 1%
Pavel Horáková; 1% + 7%
Jana Procházková; 64%
