Jan Veselá ;  7% + 49%
Lucie Nováková ;  28% + 12% + 3%
Petr Marek ;  28/34
Josef Marková ;  6/21
Miroslav Pospíšilová ;  65%
Michal Novotný ;  16% + 31% + 32%
Kateřina Procházková ;  4/16 + 13/32
Eva Marek ;  2% + 12% + 30%
Jiří Kučera ;  12/35
Jiří Novotná ;  3% + 23% + 16%
Zdeněk Veselý ;  7/9
