Jana Horák; 3/30 + 9/44
Jiří Novák; 4/7
Anna Procházka; 26% + 12%
Václav Horák; 10/12
Jakub Horák; 15/16
Anna Procházka; 6% + 0% + 22%
Miroslav Horák; 22% + 30% + 19%
Miroslav Němec; 16/45
Michal Dvořáková; 43%
František Novotný; 11/28 + 4/10
Jan Marek; 20/22
Hana Pospíšilová; 3/30
