Michal Novák; 32% + 16% + 14%
Eva Veselý; 35%
Lenka Černá; 6/41
Josef Pospíšilová; 80%
František Kučerová; 14/60 + 5/28
Martin Horáková; 56%
Alena Pokorná; 83%
František Pokorná; 1/3
Eva Veselá; 1/15
Věra Veselý; 72%
Věra Svobodová; 74%
Jakub Procházková; 10/37
Jan Procházka; 17%
Pavel Marek; 23/31
Milan Horák; 17% + 17%
Martin Procházka; 7/19
Jaroslav Dvořáková; 32/86 + 2/48
Věra Krejčí; 22% + 12% + 8%
