Miroslav Černý; 15/16
Jiří Krejčí; 4/5
Alena Procházková; 62%
Jana Němec; 24/49
Jaroslav Veselá; 47% + 4%
Lenka Němec; 44/50
Alena Novotný; 99%
Miroslav Procházková; 93%
Jana Procházková; 26%
Lenka Svobodová; 50% + 48%
Petr Pokorná; 4/22 + 4/8
Michal Novák; 3/4
Václav Marek; 71%
