Josef Marek ;  23/62 + 4/88
Eva Nováková ;  2/6
Pavel Procházková ;  11%
Václav Marek ;  44%
Jakub Černý ;  27%
Jan Novák ;  39%
Milan Procházka ;  91%
Jana Horák ;  37%
Milan Svobodová ;  12/15
Marie Kučera ;  23/30
Martin Veselá ;  68% + 15%
Petr Pokorná ;  3/15
Václav Novotný ;  5%
Jan Dvořáková ;  66%
Josef Procházka ;  86%
Josef Marek ;  3% + 23%
