Eva Procházka ;  39% + 27%
Tomáš Kučerová ;  15/30
Marie Horáková ;  73%
Alena Dvořáková ;  20% + 30%
Jan Pospíšilová ;  52%
Zdeněk Černý ;  14/38 + 2/16
Jiří Černý ;  7% + 21% + 16%
Anna Svoboda ;  0% + 58%
Pavel Němcová ;  18/31
Milan Němec ;  20/25
Pavel Kučerová ;  9/18
Kateřina Dvořáková ;  8/27
Zdeněk Kučerová ;  8/35
Milan Novotný ;  63%
Michal Pokorná ;  14% + 82%
