Hana Veselý; 0% + 14%
Tomáš Kučera; 0% + 10% + 17%
Jakub Kučerová; 1/4
Anna Dvořáková; 7/7
Anna Procházková; 31/50
Kateřina Marek; 14/24
Kateřina Novák; 7/15
Jiří Novotná; 5/28 + 2/4
Lucie Nováková; 85%
Věra Procházka; 8/92 + 11/84
Jakub Horák; 5/11
Hana Dvořák; 13/21
Petr Němec; 26% + 19% + 29%
Alena Dvořák; 29/48
