Lenka Dvořák; 10/56 + 15/74
Hana Pokorná; 17/34 + 14/70
Milan Horáková; 17/34
Martin Veselý; 1/1
Martin Dvořáková; 64% + 24%
Hana Němec; 11/25
Kateřina Novák; 20% + 16% + 7%
Eva Procházka; 19% + 9%
Věra Kučera; 32/42
Lucie Nováková; 8% + 32% + 29%
František Horáková; 13%
