Milan Pokorná ;  97%
Pavel Novák ;  40%
Jakub Kučera ;  28%
František Pospíšilová ;  27% + 22% + 15%
Jakub Veselá ;  31% + 14%
Jan Horák ;  23/40
Lenka Pospíšilová ;  30%
František Kučerová ;  13% + 3% + 9%
Pavel Procházková ;  36/48
František Pospíšilová ;  29% + 12% + 9%
Jakub Svobodová ;  70%
Jana Krejčí ;  6% + 31% + 3%
Petr Procházková ;  39/46
