Anna Kučera ;  9/96 + 24/74
Jakub Procházková ;  1/5
Kateřina Dvořáková ;  3%
Lucie Horáková ;  4/25
Eva Svoboda ;  32/40
Jakub Krejčí ;  21%
Jana Černý ;  12/14
Michal Němec ;  26% + 16% + 9%
Jan Procházka ;  23% + 3%
Jana Novotný ;  31/42
