Miroslav Krejčí; 24/98 + 2/24
Lenka Veselá; 6/21
Hana Novotná; 15/20
Zdeněk Dvořák; 32/70 + 1/4
Tomáš Kučerová; 2/4
Anna Černá; 93%
Jakub Horáková; 52%
František Nováková; 22% + 18% + 20%
Jakub Veselá; 11% + 28% + 31%
Michal Svoboda; 5%
Miroslav Svobodová; 20%
Zdeněk Pokorná; 4/6
Josef Veselý; 42%
Milan Novotná; 62%
