Lenka Svoboda ;  35/90 + 1/18
Hana Novotná ;  27/46
Václav Svoboda ;  9/24
Michal Procházka ;  1/1
Václav Marková ;  9/14
Marie Pokorná ;  15% + 12% + 17%
Tomáš Kučera ;  25% + 47%
Jakub Novák ;  6/20
Michal Horáková ;  43% + 21%
Hana Pokorná ;  41% + 30%
Eva Marková ;  19/39
