Jan Procházková; 50%
Petr Nováková; 24/36
Eva Kučerová; 14/38
František Nováková; 30/30
Věra Procházka; 8/29
Věra Veselá; 20/30
Jakub Němcová; 10% + 45%
Lucie Novotný; 18% + 15% + 26%
Martin Dvořák; 68%
Petr Horáková; 5/10 + 15/82
Jana Novotná; 9/40
Jiří Svobodová; 44%
Lucie Procházka; 19/38
Hana Procházková; 47% + 37%
Lenka Horáková; 21% + 28% + 26%
Věra Svoboda; 80%
Josef Němcová; 5% + 39%
Eva Svoboda; 12% + 11% + 1%
Michal Němec; 1/5
