Anna Nováková; 27%
Kateřina Veselá; 17% + 12% + 23%
Kateřina Němcová; 6% + 40%
Marie Procházková; 29/39
Kateřina Krejčí; 13% + 31% + 16%
Jakub Krejčí; 6% + 5% + 13%
Lenka Černá; 59%
Miroslav Dvořáková; 75% + 18%
Alena Dvořáková; 13/47
Jiří Dvořáková; 14/20
Jakub Svoboda; 12/33
