Milan Dvořák; 28/49
Zdeněk Veselá; 68%
Marie Novák; 87%
Zdeněk Pospíšilová; 10/66 + 18/46
Věra Černá; 20% + 28% + 24%
Jiří Svoboda; 3/36
Kateřina Veselý; 58%
Jan Pospíšilová; 99%
Eva Veselá; 51%
Jan Kučera; 5% + 29%
