Milan Kučera ;  8/58 + 4/14
Eva Horák ;  27% + 6% + 18%
František Novák ;  4/54 + 1/70
Pavel Kučera ;  23% + 51%
Petr Svobodová ;  33% + 1% + 8%
Lucie Novotný ;  0% + 11% + 8%
Josef Dvořáková ;  1/18
Marie Němec ;  5/50 + 4/8
Zdeněk Černý ;  1/42
Pavel Svoboda ;  9/60 + 19/82
Eva Němcová ;  24% + 39%
Věra Krejčí ;  21%
