Lucie Procházka ;  62%
František Kučerová ;  19/37
Anna Černá ;  5% + 32%
Jan Pokorná ;  14/16
Zdeněk Veselá ;  1% + 17% + 13%
Zdeněk Němcová ;  88%
Lucie Pospíšilová ;  3/6
Eva Dvořák ;  20/46
Anna Krejčí ;  0% + 75%
Marie Kučerová ;  12/92 + 2/62
Martin Němec ;  1/6 + 8/88
Jiří Marek ;  1/6 + 14/34
Tomáš Novák ;  7/15
Tomáš Pospíšilová ;  14/17
Milan Dvořáková ;  66%
Lenka Pokorná ;  25/39
