Jana Novotný ;  31% + 13% + 19%
Alena Veselý ;  19/45
Josef Černý ;  4% + 7%
Alena Černý ;  15/36 + 33/74
Petr Nováková ;  39%
Alena Svobodová ;  49%
Alena Pokorná ;  17/40 + 5/26
Zdeněk Veselý ;  33%
Marie Kučerová ;  39/44
Jakub Dvořáková ;  2% + 19% + 8%
