Pavel Procházka; 16%
Anna Horáková; 17% + 20% + 1%
Hana Krejčí; 1/3
Pavel Němcová; 10/13
Marie Němcová; 34% + 26%
Martin Krejčí; 26/44
Lenka Němec; 5/49
Tomáš Černý; 11/24 + 4/8
Michal Krejčí; 3% + 10%
František Krejčí; 6% + 65%
Milan Novák; 23/32
Zdeněk Nováková; 25% + 36%
