Věra Kučera ;  5/27
Anna Novotný ;  29% + 32% + 7%
Eva Novotný ;  15/41
Marie Svobodová ;  19/47
Kateřina Marek ;  20% + 37%
Eva Marek ;  13/13
Jaroslav Marek ;  11% + 6%
František Pospíšilová ;  19/22
Petr Černý ;  34% + 10%
Lenka Horáková ;  11/30 + 34/72
Kateřina Novák ;  1/3
Jaroslav Kučera ;  13/38 + 1/58
