Miroslav Procházka ;  0%
Josef Nováková ;  30/44
Věra Novotný ;  31/40
Václav Černý ;  22/50 + 5/12
Alena Procházka ;  50% + 23%
Martin Procházka ;  68%
Věra Dvořák ;  83%
Věra Marková ;  21% + 13% + 28%
Zdeněk Novotný ;  98%
Václav Dvořáková ;  78%
Eva Horák ;  4/17
Eva Němcová ;  7/15
Marie Veselá ;  32/41
Alena Marková ;  1/30
Eva Marková ;  28% + 23% + 22%
Pavel Kučera ;  4% + 14% + 26%
Lenka Novák ;  10/28 + 3/20
Milan Marek ;  6/18
Miroslav Novák ;  7/10
