Hana Dvořáková; 1% + 3%
Kateřina Kučera; 2/26 + 2/4
Pavel Novotná; 2% + 3%
Václav Černý; 13/68 + 4/50
Věra Němec; 15/30 + 3/44
František Dvořák; 37%
Václav Novák; 16/98 + 10/44
Alena Novotný; 3%
Pavel Marek; 8/50
Eva Pospíšilová; 24% + 7%
Tomáš Novotný; 11/14
Martin Procházka; 50%
Martin Marková; 2/19
Miroslav Novák; 10/32
Věra Kučerová; 20% + 4% + 25%
Anna Kučerová; 30%
Tomáš Pokorná; 30%
